^D:\EDEN STUFF\DROPBOX\UNIVERSITY\GAMES PROGRAMMING\LABS\STREAM 2\SPIKE 6\FIRSTSDLPROJECT\FIRSTSDLPROJECT\DEBUG\FIRSTSDLPROJECT.EXE.INTERMEDIATE.MANIFEST
/nologo /verbose /outputresource:"D:\Eden Stuff\Dropbox\University\Games Programming\Labs\Stream 2\Spike 6\FirstSDLProject\Debug\FirstSDLProject.exe;#1" /manifest Debug\FirstSDLProject.exe.intermediate.manifest
^C:\EDEN STUFF\DROPBOX\UNIVERSITY\GAMES PROGRAMMING\LABS\STREAM 2\SPIKE 6\FIRSTSDLPROJECT\FIRSTSDLPROJECT\DEBUG\FIRSTSDLPROJECT.EXE.INTERMEDIATE.MANIFEST
/nologo /verbose /outputresource:"C:\Eden Stuff\Dropbox\University\Games Programming\Labs\Stream 2\Spike 6\FirstSDLProject\Debug\FirstSDLProject.exe;#1" /manifest Debug\FirstSDLProject.exe.intermediate.manifest
