^D:\EDEN STUFF\DROPBOX\UNIVERSITY\GAMES PROGRAMMING\LABS\STREAM 2\SPIKE 6\FIRSTSDLPROJECT\FIRSTSDLPROJECT\DEBUG\FIRSTSDLPROJECT.EXE.INTERMEDIATE.MANIFEST
D:\EDEN STUFF\DROPBOX\UNIVERSITY\GAMES PROGRAMMING\LABS\STREAM 2\SPIKE 6\FIRSTSDLPROJECT\DEBUG\FIRSTSDLPROJECT.EXE
^C:\EDEN STUFF\DROPBOX\UNIVERSITY\GAMES PROGRAMMING\LABS\STREAM 2\SPIKE 6\FIRSTSDLPROJECT\FIRSTSDLPROJECT\DEBUG\FIRSTSDLPROJECT.EXE.INTERMEDIATE.MANIFEST
C:\EDEN STUFF\DROPBOX\UNIVERSITY\GAMES PROGRAMMING\LABS\STREAM 2\SPIKE 6\FIRSTSDLPROJECT\DEBUG\FIRSTSDLPROJECT.EXE
