^D:\EDEN STUFF\DROPBOX\UNIVERSITY\GAMES PROGRAMMING\LABS\STREAM 3\SPIKE 13\ZORKISH\ZORKISH\DEBUG\COMMANDPROCESSING.OBJ|D:\EDEN STUFF\DROPBOX\UNIVERSITY\GAMES PROGRAMMING\LABS\STREAM 3\SPIKE 13\ZORKISH\ZORKISH\DEBUG\CONTAINER.OBJ|D:\EDEN STUFF\DROPBOX\UNIVERSITY\GAMES PROGRAMMING\LABS\STREAM 3\SPIKE 13\ZORKISH\ZORKISH\DEBUG\DROPCOMMAND.OBJ|D:\EDEN STUFF\DROPBOX\UNIVERSITY\GAMES PROGRAMMING\LABS\STREAM 3\SPIKE 13\ZORKISH\ZORKISH\DEBUG\GAME.OBJ|D:\EDEN STUFF\DROPBOX\UNIVERSITY\GAMES PROGRAMMING\LABS\STREAM 3\SPIKE 13\ZORKISH\ZORKISH\DEBUG\GAMEOBJECT.OBJ|D:\EDEN STUFF\DROPBOX\UNIVERSITY\GAMES PROGRAMMING\LABS\STREAM 3\SPIKE 13\ZORKISH\ZORKISH\DEBUG\IDENTIFIABLEOBJECT.OBJ|D:\EDEN STUFF\DROPBOX\UNIVERSITY\GAMES PROGRAMMING\LABS\STREAM 3\SPIKE 13\ZORKISH\ZORKISH\DEBUG\INVENTORY.OBJ|D:\EDEN STUFF\DROPBOX\UNIVERSITY\GAMES PROGRAMMING\LABS\STREAM 3\SPIKE 13\ZORKISH\ZORKISH\DEBUG\LOCATION.OBJ|D:\EDEN STUFF\DROPBOX\UNIVERSITY\GAMES PROGRAMMING\LABS\STREAM 3\SPIKE 13\ZORKISH\ZORKISH\DEBUG\LOOKCOMMAND.OBJ|D:\EDEN STUFF\DROPBOX\UNIVERSITY\GAMES PROGRAMMING\LABS\STREAM 3\SPIKE 13\ZORKISH\ZORKISH\DEBUG\MENUS.OBJ|D:\EDEN STUFF\DROPBOX\UNIVERSITY\GAMES PROGRAMMING\LABS\STREAM 3\SPIKE 13\ZORKISH\ZORKISH\DEBUG\MOVECOMMAND.OBJ|D:\EDEN STUFF\DROPBOX\UNIVERSITY\GAMES PROGRAMMING\LABS\STREAM 3\SPIKE 13\ZORKISH\ZORKISH\DEBUG\PLAYER.OBJ|D:\EDEN STUFF\DROPBOX\UNIVERSITY\GAMES PROGRAMMING\LABS\STREAM 3\SPIKE 13\ZORKISH\ZORKISH\DEBUG\PROGRAM.OBJ|D:\EDEN STUFF\DROPBOX\UNIVERSITY\GAMES PROGRAMMING\LABS\STREAM 3\SPIKE 13\ZORKISH\ZORKISH\DEBUG\PUTCOMMAND.OBJ|D:\EDEN STUFF\DROPBOX\UNIVERSITY\GAMES PROGRAMMING\LABS\STREAM 3\SPIKE 13\ZORKISH\ZORKISH\DEBUG\TAKECOMMAND.OBJ|D:\EDEN STUFF\DROPBOX\UNIVERSITY\GAMES PROGRAMMING\LABS\STREAM 3\SPIKE 13\ZORKISH\ZORKISH\DEBUG\WORLD.OBJ|D:\EDEN STUFF\DROPBOX\UNIVERSITY\GAMES PROGRAMMING\LABS\STREAM 3\SPIKE 13\ZORKISH\ZORKISH\DEBUG\ZORKISH.OBJ
/OUT:"D:\EDEN STUFF\DROPBOX\UNIVERSITY\GAMES PROGRAMMING\LABS\STREAM 3\SPIKE 13\ZORKISH\DEBUG\ZORKISH.EXE" /INCREMENTAL /NOLOGO KERNEL32.LIB USER32.LIB GDI32.LIB WINSPOOL.LIB COMDLG32.LIB ADVAPI32.LIB SHELL32.LIB OLE32.LIB OLEAUT32.LIB UUID.LIB ODBC32.LIB ODBCCP32.LIB /MANIFEST /MANIFESTUAC:"level='asInvoker' uiAccess='false'" /manifest:embed /Debug /PDB:"D:\EDEN STUFF\DROPBOX\UNIVERSITY\GAMES PROGRAMMING\LABS\STREAM 3\SPIKE 13\ZORKISH\DEBUG\ZORKISH.PDB" /TLBID:1 /DYNAMICBASE /NXCOMPAT /IMPLIB:"D:\EDEN STUFF\DROPBOX\UNIVERSITY\GAMES PROGRAMMING\LABS\STREAM 3\SPIKE 13\ZORKISH\DEBUG\ZORKISH.LIB" /MACHINE:X86 DEBUG\COMMANDPROCESSING.OBJDEBUG\CONTAINER.OBJDEBUG\DROPCOMMAND.OBJDEBUG\GAME.OBJDEBUG\GAMEOBJECT.OBJDEBUG\IDENTIFIABLEOBJECT.OBJDEBUG\INVENTORY.OBJDEBUG\LOCATION.OBJDEBUG\LOOKCOMMAND.OBJDEBUG\MENUS.OBJDEBUG\MOVECOMMAND.OBJDEBUG\PLAYER.OBJDEBUG\PROGRAM.OBJDEBUG\PUTCOMMAND.OBJDEBUG\TAKECOMMAND.OBJDEBUG\WORLD.OBJDEBUG\ZORKISH.OBJ
^D:\EDEN STUFF\DROPBOX\UNIVERSITY\GAMES PROGRAMMING\LABS\STREAM 3\SPIKE 14\ZORKISH\ZORKISH\DEBUG\COMMANDPROCESSING.OBJ|D:\EDEN STUFF\DROPBOX\UNIVERSITY\GAMES PROGRAMMING\LABS\STREAM 3\SPIKE 14\ZORKISH\ZORKISH\DEBUG\COMPONENT.OBJ|D:\EDEN STUFF\DROPBOX\UNIVERSITY\GAMES PROGRAMMING\LABS\STREAM 3\SPIKE 14\ZORKISH\ZORKISH\DEBUG\CONTAINER.OBJ|D:\EDEN STUFF\DROPBOX\UNIVERSITY\GAMES PROGRAMMING\LABS\STREAM 3\SPIKE 14\ZORKISH\ZORKISH\DEBUG\DROPCOMMAND.OBJ|D:\EDEN STUFF\DROPBOX\UNIVERSITY\GAMES PROGRAMMING\LABS\STREAM 3\SPIKE 14\ZORKISH\ZORKISH\DEBUG\GAME.OBJ|D:\EDEN STUFF\DROPBOX\UNIVERSITY\GAMES PROGRAMMING\LABS\STREAM 3\SPIKE 14\ZORKISH\ZORKISH\DEBUG\GAMEOBJECT.OBJ|D:\EDEN STUFF\DROPBOX\UNIVERSITY\GAMES PROGRAMMING\LABS\STREAM 3\SPIKE 14\ZORKISH\ZORKISH\DEBUG\IDENTIFIABLEOBJECT.OBJ|D:\EDEN STUFF\DROPBOX\UNIVERSITY\GAMES PROGRAMMING\LABS\STREAM 3\SPIKE 14\ZORKISH\ZORKISH\DEBUG\INVENTORY.OBJ|D:\EDEN STUFF\DROPBOX\UNIVERSITY\GAMES PROGRAMMING\LABS\STREAM 3\SPIKE 14\ZORKISH\ZORKISH\DEBUG\ITEM.OBJ|D:\EDEN STUFF\DROPBOX\UNIVERSITY\GAMES PROGRAMMING\LABS\STREAM 3\SPIKE 14\ZORKISH\ZORKISH\DEBUG\LOCATION.OBJ|D:\EDEN STUFF\DROPBOX\UNIVERSITY\GAMES PROGRAMMING\LABS\STREAM 3\SPIKE 14\ZORKISH\ZORKISH\DEBUG\LOOKCOMMAND.OBJ|D:\EDEN STUFF\DROPBOX\UNIVERSITY\GAMES PROGRAMMING\LABS\STREAM 3\SPIKE 14\ZORKISH\ZORKISH\DEBUG\MENUS.OBJ|D:\EDEN STUFF\DROPBOX\UNIVERSITY\GAMES PROGRAMMING\LABS\STREAM 3\SPIKE 14\ZORKISH\ZORKISH\DEBUG\MOVECOMMAND.OBJ|D:\EDEN STUFF\DROPBOX\UNIVERSITY\GAMES PROGRAMMING\LABS\STREAM 3\SPIKE 14\ZORKISH\ZORKISH\DEBUG\PLAYER.OBJ|D:\EDEN STUFF\DROPBOX\UNIVERSITY\GAMES PROGRAMMING\LABS\STREAM 3\SPIKE 14\ZORKISH\ZORKISH\DEBUG\PROGRAM.OBJ|D:\EDEN STUFF\DROPBOX\UNIVERSITY\GAMES PROGRAMMING\LABS\STREAM 3\SPIKE 14\ZORKISH\ZORKISH\DEBUG\PUTCOMMAND.OBJ|D:\EDEN STUFF\DROPBOX\UNIVERSITY\GAMES PROGRAMMING\LABS\STREAM 3\SPIKE 14\ZORKISH\ZORKISH\DEBUG\TAKECOMMAND.OBJ|D:\EDEN STUFF\DROPBOX\UNIVERSITY\GAMES PROGRAMMING\LABS\STREAM 3\SPIKE 14\ZORKISH\ZORKISH\DEBUG\WORLD.OBJ|D:\EDEN STUFF\DROPBOX\UNIVERSITY\GAMES PROGRAMMING\LABS\STREAM 3\SPIKE 14\ZORKISH\ZORKISH\DEBUG\ZORKISH.OBJ
/OUT:"D:\EDEN STUFF\DROPBOX\UNIVERSITY\GAMES PROGRAMMING\LABS\STREAM 3\SPIKE 14\ZORKISH\DEBUG\ZORKISH.EXE" /INCREMENTAL /NOLOGO KERNEL32.LIB USER32.LIB GDI32.LIB WINSPOOL.LIB COMDLG32.LIB ADVAPI32.LIB SHELL32.LIB OLE32.LIB OLEAUT32.LIB UUID.LIB ODBC32.LIB ODBCCP32.LIB /MANIFEST /MANIFESTUAC:"level='asInvoker' uiAccess='false'" /manifest:embed /Debug /PDB:"D:\EDEN STUFF\DROPBOX\UNIVERSITY\GAMES PROGRAMMING\LABS\STREAM 3\SPIKE 14\ZORKISH\DEBUG\ZORKISH.PDB" /TLBID:1 /DYNAMICBASE /NXCOMPAT /IMPLIB:"D:\EDEN STUFF\DROPBOX\UNIVERSITY\GAMES PROGRAMMING\LABS\STREAM 3\SPIKE 14\ZORKISH\DEBUG\ZORKISH.LIB" /MACHINE:X86 DEBUG\COMMANDPROCESSING.OBJDEBUG\COMPONENT.OBJDEBUG\CONTAINER.OBJDEBUG\DROPCOMMAND.OBJDEBUG\GAME.OBJDEBUG\GAMEOBJECT.OBJDEBUG\IDENTIFIABLEOBJECT.OBJDEBUG\INVENTORY.OBJDEBUG\ITEM.OBJDEBUG\LOCATION.OBJDEBUG\LOOKCOMMAND.OBJDEBUG\MENUS.OBJDEBUG\MOVECOMMAND.OBJDEBUG\PLAYER.OBJDEBUG\PROGRAM.OBJDEBUG\PUTCOMMAND.OBJDEBUG\TAKECOMMAND.OBJDEBUG\WORLD.OBJDEBUG\ZORKISH.OBJ
^D:\EDEN STUFF\DROPBOX\UNIVERSITY\GAMES PROGRAMMING\LABS\STREAM 4\SPIKE 18\ZORKISH\ZORKISH\DEBUG\COMMANDPROCESSING.OBJ|D:\EDEN STUFF\DROPBOX\UNIVERSITY\GAMES PROGRAMMING\LABS\STREAM 4\SPIKE 18\ZORKISH\ZORKISH\DEBUG\COMPONENT.OBJ|D:\EDEN STUFF\DROPBOX\UNIVERSITY\GAMES PROGRAMMING\LABS\STREAM 4\SPIKE 18\ZORKISH\ZORKISH\DEBUG\CONTAINER.OBJ|D:\EDEN STUFF\DROPBOX\UNIVERSITY\GAMES PROGRAMMING\LABS\STREAM 4\SPIKE 18\ZORKISH\ZORKISH\DEBUG\DROPCOMMAND.OBJ|D:\EDEN STUFF\DROPBOX\UNIVERSITY\GAMES PROGRAMMING\LABS\STREAM 4\SPIKE 18\ZORKISH\ZORKISH\DEBUG\GAME.OBJ|D:\EDEN STUFF\DROPBOX\UNIVERSITY\GAMES PROGRAMMING\LABS\STREAM 4\SPIKE 18\ZORKISH\ZORKISH\DEBUG\GAMEOBJECT.OBJ|D:\EDEN STUFF\DROPBOX\UNIVERSITY\GAMES PROGRAMMING\LABS\STREAM 4\SPIKE 18\ZORKISH\ZORKISH\DEBUG\IDENTIFIABLEOBJECT.OBJ|D:\EDEN STUFF\DROPBOX\UNIVERSITY\GAMES PROGRAMMING\LABS\STREAM 4\SPIKE 18\ZORKISH\ZORKISH\DEBUG\INVENTORY.OBJ|D:\EDEN STUFF\DROPBOX\UNIVERSITY\GAMES PROGRAMMING\LABS\STREAM 4\SPIKE 18\ZORKISH\ZORKISH\DEBUG\ITEM.OBJ|D:\EDEN STUFF\DROPBOX\UNIVERSITY\GAMES PROGRAMMING\LABS\STREAM 4\SPIKE 18\ZORKISH\ZORKISH\DEBUG\LOCATION.OBJ|D:\EDEN STUFF\DROPBOX\UNIVERSITY\GAMES PROGRAMMING\LABS\STREAM 4\SPIKE 18\ZORKISH\ZORKISH\DEBUG\LOOKCOMMAND.OBJ|D:\EDEN STUFF\DROPBOX\UNIVERSITY\GAMES PROGRAMMING\LABS\STREAM 4\SPIKE 18\ZORKISH\ZORKISH\DEBUG\MENUS.OBJ|D:\EDEN STUFF\DROPBOX\UNIVERSITY\GAMES PROGRAMMING\LABS\STREAM 4\SPIKE 18\ZORKISH\ZORKISH\DEBUG\MOVECOMMAND.OBJ|D:\EDEN STUFF\DROPBOX\UNIVERSITY\GAMES PROGRAMMING\LABS\STREAM 4\SPIKE 18\ZORKISH\ZORKISH\DEBUG\PLAYER.OBJ|D:\EDEN STUFF\DROPBOX\UNIVERSITY\GAMES PROGRAMMING\LABS\STREAM 4\SPIKE 18\ZORKISH\ZORKISH\DEBUG\PROGRAM.OBJ|D:\EDEN STUFF\DROPBOX\UNIVERSITY\GAMES PROGRAMMING\LABS\STREAM 4\SPIKE 18\ZORKISH\ZORKISH\DEBUG\PUTCOMMAND.OBJ|D:\EDEN STUFF\DROPBOX\UNIVERSITY\GAMES PROGRAMMING\LABS\STREAM 4\SPIKE 18\ZORKISH\ZORKISH\DEBUG\TAKECOMMAND.OBJ|D:\EDEN STUFF\DROPBOX\UNIVERSITY\GAMES PROGRAMMING\LABS\STREAM 4\SPIKE 18\ZORKISH\ZORKISH\DEBUG\WORLD.OBJ|D:\EDEN STUFF\DROPBOX\UNIVERSITY\GAMES PROGRAMMING\LABS\STREAM 4\SPIKE 18\ZORKISH\ZORKISH\DEBUG\ZORKISH.OBJ
/OUT:"D:\EDEN STUFF\DROPBOX\UNIVERSITY\GAMES PROGRAMMING\LABS\STREAM 4\SPIKE 18\ZORKISH\DEBUG\ZORKISH.EXE" /INCREMENTAL /NOLOGO KERNEL32.LIB USER32.LIB GDI32.LIB WINSPOOL.LIB COMDLG32.LIB ADVAPI32.LIB SHELL32.LIB OLE32.LIB OLEAUT32.LIB UUID.LIB ODBC32.LIB ODBCCP32.LIB /MANIFEST /MANIFESTUAC:"level='asInvoker' uiAccess='false'" /manifest:embed /Debug /PDB:"D:\EDEN STUFF\DROPBOX\UNIVERSITY\GAMES PROGRAMMING\LABS\STREAM 4\SPIKE 18\ZORKISH\DEBUG\ZORKISH.PDB" /TLBID:1 /DYNAMICBASE /NXCOMPAT /IMPLIB:"D:\EDEN STUFF\DROPBOX\UNIVERSITY\GAMES PROGRAMMING\LABS\STREAM 4\SPIKE 18\ZORKISH\DEBUG\ZORKISH.LIB" /MACHINE:X86 DEBUG\COMMANDPROCESSING.OBJDEBUG\COMPONENT.OBJDEBUG\CONTAINER.OBJDEBUG\DROPCOMMAND.OBJDEBUG\GAME.OBJDEBUG\GAMEOBJECT.OBJDEBUG\IDENTIFIABLEOBJECT.OBJDEBUG\INVENTORY.OBJDEBUG\ITEM.OBJDEBUG\LOCATION.OBJDEBUG\LOOKCOMMAND.OBJDEBUG\MENUS.OBJDEBUG\MOVECOMMAND.OBJDEBUG\PLAYER.OBJDEBUG\PROGRAM.OBJDEBUG\PUTCOMMAND.OBJDEBUG\TAKECOMMAND.OBJDEBUG\WORLD.OBJDEBUG\ZORKISH.OBJ
