^D:\EDEN STUFF\DROPBOX\UNIVERSITY\GAMES PROGRAMMING\LABS\STREAM 3\SPIKE 12\ZORKISH\ZORKISH\ABOUTSTATE.CPP|D:\EDEN STUFF\DROPBOX\UNIVERSITY\GAMES PROGRAMMING\LABS\STREAM 3\SPIKE 12\ZORKISH\ZORKISH\GAMESTATE.CPP|D:\EDEN STUFF\DROPBOX\UNIVERSITY\GAMES PROGRAMMING\LABS\STREAM 3\SPIKE 12\ZORKISH\ZORKISH\HALLSTATE.CPP|D:\EDEN STUFF\DROPBOX\UNIVERSITY\GAMES PROGRAMMING\LABS\STREAM 3\SPIKE 12\ZORKISH\ZORKISH\HELPSTATE.CPP|D:\EDEN STUFF\DROPBOX\UNIVERSITY\GAMES PROGRAMMING\LABS\STREAM 3\SPIKE 12\ZORKISH\ZORKISH\MENUSTATE.CPP|D:\EDEN STUFF\DROPBOX\UNIVERSITY\GAMES PROGRAMMING\LABS\STREAM 3\SPIKE 12\ZORKISH\ZORKISH\PROGRAM.CPP|D:\EDEN STUFF\DROPBOX\UNIVERSITY\GAMES PROGRAMMING\LABS\STREAM 3\SPIKE 12\ZORKISH\ZORKISH\SELECTSTATE.CPP|D:\EDEN STUFF\DROPBOX\UNIVERSITY\GAMES PROGRAMMING\LABS\STREAM 3\SPIKE 12\ZORKISH\ZORKISH\STATEMANAGER.CPP
D:\EDEN STUFF\DROPBOX\UNIVERSITY\GAMES PROGRAMMING\LABS\STREAM 3\SPIKE 12\ZORKISH\ZORKISH\DEBUG\VC140.PDB
D:\EDEN STUFF\DROPBOX\UNIVERSITY\GAMES PROGRAMMING\LABS\STREAM 3\SPIKE 12\ZORKISH\ZORKISH\DEBUG\VC140.IDB
D:\EDEN STUFF\DROPBOX\UNIVERSITY\GAMES PROGRAMMING\LABS\STREAM 3\SPIKE 12\ZORKISH\ZORKISH\DEBUG\ABOUTSTATE.OBJ
D:\EDEN STUFF\DROPBOX\UNIVERSITY\GAMES PROGRAMMING\LABS\STREAM 3\SPIKE 12\ZORKISH\ZORKISH\DEBUG\GAMESTATE.OBJ
D:\EDEN STUFF\DROPBOX\UNIVERSITY\GAMES PROGRAMMING\LABS\STREAM 3\SPIKE 12\ZORKISH\ZORKISH\DEBUG\HALLSTATE.OBJ
D:\EDEN STUFF\DROPBOX\UNIVERSITY\GAMES PROGRAMMING\LABS\STREAM 3\SPIKE 12\ZORKISH\ZORKISH\DEBUG\HELPSTATE.OBJ
D:\EDEN STUFF\DROPBOX\UNIVERSITY\GAMES PROGRAMMING\LABS\STREAM 3\SPIKE 12\ZORKISH\ZORKISH\DEBUG\MENUSTATE.OBJ
D:\EDEN STUFF\DROPBOX\UNIVERSITY\GAMES PROGRAMMING\LABS\STREAM 3\SPIKE 12\ZORKISH\ZORKISH\DEBUG\PROGRAM.OBJ
D:\EDEN STUFF\DROPBOX\UNIVERSITY\GAMES PROGRAMMING\LABS\STREAM 3\SPIKE 12\ZORKISH\ZORKISH\DEBUG\SELECTSTATE.OBJ
D:\EDEN STUFF\DROPBOX\UNIVERSITY\GAMES PROGRAMMING\LABS\STREAM 3\SPIKE 12\ZORKISH\ZORKISH\DEBUG\STATEMANAGER.OBJ
^D:\EDEN STUFF\DROPBOX\UNIVERSITY\GAMES PROGRAMMING\LABS\STREAM 3\SPIKE 12\ZORKISH\ZORKISH\ABOUTSTATE.CPP
D:\EDEN STUFF\DROPBOX\UNIVERSITY\GAMES PROGRAMMING\LABS\STREAM 3\SPIKE 12\ZORKISH\ZORKISH\DEBUG\VC140.PDB
D:\EDEN STUFF\DROPBOX\UNIVERSITY\GAMES PROGRAMMING\LABS\STREAM 3\SPIKE 12\ZORKISH\ZORKISH\DEBUG\VC140.IDB
D:\EDEN STUFF\DROPBOX\UNIVERSITY\GAMES PROGRAMMING\LABS\STREAM 3\SPIKE 12\ZORKISH\ZORKISH\DEBUG\ABOUTSTATE.OBJ
^D:\EDEN STUFF\DROPBOX\UNIVERSITY\GAMES PROGRAMMING\LABS\STREAM 3\SPIKE 12\ZORKISH\ZORKISH\GAMESTATE.CPP
D:\EDEN STUFF\DROPBOX\UNIVERSITY\GAMES PROGRAMMING\LABS\STREAM 3\SPIKE 12\ZORKISH\ZORKISH\DEBUG\VC140.PDB
D:\EDEN STUFF\DROPBOX\UNIVERSITY\GAMES PROGRAMMING\LABS\STREAM 3\SPIKE 12\ZORKISH\ZORKISH\DEBUG\VC140.IDB
D:\EDEN STUFF\DROPBOX\UNIVERSITY\GAMES PROGRAMMING\LABS\STREAM 3\SPIKE 12\ZORKISH\ZORKISH\DEBUG\GAMESTATE.OBJ
^D:\EDEN STUFF\DROPBOX\UNIVERSITY\GAMES PROGRAMMING\LABS\STREAM 3\SPIKE 12\ZORKISH\ZORKISH\HALLSTATE.CPP
D:\EDEN STUFF\DROPBOX\UNIVERSITY\GAMES PROGRAMMING\LABS\STREAM 3\SPIKE 12\ZORKISH\ZORKISH\DEBUG\VC140.PDB
^D:\EDEN STUFF\DROPBOX\UNIVERSITY\GAMES PROGRAMMING\LABS\STREAM 3\SPIKE 12\ZORKISH\ZORKISH\HELPSTATE.CPP
D:\EDEN STUFF\DROPBOX\UNIVERSITY\GAMES PROGRAMMING\LABS\STREAM 3\SPIKE 12\ZORKISH\ZORKISH\DEBUG\VC140.PDB
^D:\EDEN STUFF\DROPBOX\UNIVERSITY\GAMES PROGRAMMING\LABS\STREAM 3\SPIKE 12\ZORKISH\ZORKISH\MENUSTATE.CPP
D:\EDEN STUFF\DROPBOX\UNIVERSITY\GAMES PROGRAMMING\LABS\STREAM 3\SPIKE 12\ZORKISH\ZORKISH\DEBUG\VC140.PDB
^D:\EDEN STUFF\DROPBOX\UNIVERSITY\GAMES PROGRAMMING\LABS\STREAM 3\SPIKE 12\ZORKISH\ZORKISH\PROGRAM.CPP
D:\EDEN STUFF\DROPBOX\UNIVERSITY\GAMES PROGRAMMING\LABS\STREAM 3\SPIKE 12\ZORKISH\ZORKISH\DEBUG\VC140.PDB
^D:\EDEN STUFF\DROPBOX\UNIVERSITY\GAMES PROGRAMMING\LABS\STREAM 3\SPIKE 12\ZORKISH\ZORKISH\SELECTSTATE.CPP
D:\EDEN STUFF\DROPBOX\UNIVERSITY\GAMES PROGRAMMING\LABS\STREAM 3\SPIKE 12\ZORKISH\ZORKISH\DEBUG\VC140.PDB
^D:\EDEN STUFF\DROPBOX\UNIVERSITY\GAMES PROGRAMMING\LABS\STREAM 3\SPIKE 12\ZORKISH\ZORKISH\STATEMANAGER.CPP
D:\EDEN STUFF\DROPBOX\UNIVERSITY\GAMES PROGRAMMING\LABS\STREAM 3\SPIKE 12\ZORKISH\ZORKISH\DEBUG\VC140.PDB
^D:\EDEN STUFF\DROPBOX\UNIVERSITY\GAMES PROGRAMMING\LABS\STREAM 3\SPIKE 12\ZORKISH\ZORKISH\ABOUTSTATE.CPP|D:\EDEN STUFF\DROPBOX\UNIVERSITY\GAMES PROGRAMMING\LABS\STREAM 3\SPIKE 12\ZORKISH\ZORKISH\GAMESTATE.CPP|D:\EDEN STUFF\DROPBOX\UNIVERSITY\GAMES PROGRAMMING\LABS\STREAM 3\SPIKE 12\ZORKISH\ZORKISH\HALLSTATE.CPP|D:\EDEN STUFF\DROPBOX\UNIVERSITY\GAMES PROGRAMMING\LABS\STREAM 3\SPIKE 12\ZORKISH\ZORKISH\HELPSTATE.CPP|D:\EDEN STUFF\DROPBOX\UNIVERSITY\GAMES PROGRAMMING\LABS\STREAM 3\SPIKE 12\ZORKISH\ZORKISH\MENUSTATE.CPP|D:\EDEN STUFF\DROPBOX\UNIVERSITY\GAMES PROGRAMMING\LABS\STREAM 3\SPIKE 12\ZORKISH\ZORKISH\SELECTSTATE.CPP
D:\EDEN STUFF\DROPBOX\UNIVERSITY\GAMES PROGRAMMING\LABS\STREAM 3\SPIKE 12\ZORKISH\ZORKISH\DEBUG\VC140.PDB
D:\EDEN STUFF\DROPBOX\UNIVERSITY\GAMES PROGRAMMING\LABS\STREAM 3\SPIKE 12\ZORKISH\ZORKISH\DEBUG\VC140.IDB
D:\EDEN STUFF\DROPBOX\UNIVERSITY\GAMES PROGRAMMING\LABS\STREAM 3\SPIKE 12\ZORKISH\ZORKISH\DEBUG\ABOUTSTATE.OBJ
D:\EDEN STUFF\DROPBOX\UNIVERSITY\GAMES PROGRAMMING\LABS\STREAM 3\SPIKE 12\ZORKISH\ZORKISH\DEBUG\GAMESTATE.OBJ
D:\EDEN STUFF\DROPBOX\UNIVERSITY\GAMES PROGRAMMING\LABS\STREAM 3\SPIKE 12\ZORKISH\ZORKISH\DEBUG\HALLSTATE.OBJ
D:\EDEN STUFF\DROPBOX\UNIVERSITY\GAMES PROGRAMMING\LABS\STREAM 3\SPIKE 12\ZORKISH\ZORKISH\DEBUG\HELPSTATE.OBJ
D:\EDEN STUFF\DROPBOX\UNIVERSITY\GAMES PROGRAMMING\LABS\STREAM 3\SPIKE 12\ZORKISH\ZORKISH\DEBUG\MENUSTATE.OBJ
D:\EDEN STUFF\DROPBOX\UNIVERSITY\GAMES PROGRAMMING\LABS\STREAM 3\SPIKE 12\ZORKISH\ZORKISH\DEBUG\SELECTSTATE.OBJ
^D:\EDEN STUFF\DROPBOX\UNIVERSITY\GAMES PROGRAMMING\LABS\STREAM 3\SPIKE 12\ZORKISH\ZORKISH\GAMESTATE.CPP|D:\EDEN STUFF\DROPBOX\UNIVERSITY\GAMES PROGRAMMING\LABS\STREAM 3\SPIKE 12\ZORKISH\ZORKISH\MENUSTATE.CPP|D:\EDEN STUFF\DROPBOX\UNIVERSITY\GAMES PROGRAMMING\LABS\STREAM 3\SPIKE 12\ZORKISH\ZORKISH\SELECTSTATE.CPP
D:\EDEN STUFF\DROPBOX\UNIVERSITY\GAMES PROGRAMMING\LABS\STREAM 3\SPIKE 12\ZORKISH\ZORKISH\DEBUG\VC140.PDB
D:\EDEN STUFF\DROPBOX\UNIVERSITY\GAMES PROGRAMMING\LABS\STREAM 3\SPIKE 12\ZORKISH\ZORKISH\DEBUG\VC140.IDB
D:\EDEN STUFF\DROPBOX\UNIVERSITY\GAMES PROGRAMMING\LABS\STREAM 3\SPIKE 12\ZORKISH\ZORKISH\DEBUG\GAMESTATE.OBJ
D:\EDEN STUFF\DROPBOX\UNIVERSITY\GAMES PROGRAMMING\LABS\STREAM 3\SPIKE 12\ZORKISH\ZORKISH\DEBUG\MENUSTATE.OBJ
D:\EDEN STUFF\DROPBOX\UNIVERSITY\GAMES PROGRAMMING\LABS\STREAM 3\SPIKE 12\ZORKISH\ZORKISH\DEBUG\SELECTSTATE.OBJ
^D:\EDEN STUFF\DROPBOX\UNIVERSITY\GAMES PROGRAMMING\LABS\STREAM 3\SPIKE 12\ZORKISH\ZORKISH\ABOUTSTATE.CPP|D:\EDEN STUFF\DROPBOX\UNIVERSITY\GAMES PROGRAMMING\LABS\STREAM 3\SPIKE 12\ZORKISH\ZORKISH\GAMESTATE.CPP|D:\EDEN STUFF\DROPBOX\UNIVERSITY\GAMES PROGRAMMING\LABS\STREAM 3\SPIKE 12\ZORKISH\ZORKISH\HALLSTATE.CPP|D:\EDEN STUFF\DROPBOX\UNIVERSITY\GAMES PROGRAMMING\LABS\STREAM 3\SPIKE 12\ZORKISH\ZORKISH\HELPSTATE.CPP|D:\EDEN STUFF\DROPBOX\UNIVERSITY\GAMES PROGRAMMING\LABS\STREAM 3\SPIKE 12\ZORKISH\ZORKISH\MENUSTATE.CPP|D:\EDEN STUFF\DROPBOX\UNIVERSITY\GAMES PROGRAMMING\LABS\STREAM 3\SPIKE 12\ZORKISH\ZORKISH\NEWSCORESTATE.CPP|D:\EDEN STUFF\DROPBOX\UNIVERSITY\GAMES PROGRAMMING\LABS\STREAM 3\SPIKE 12\ZORKISH\ZORKISH\PROGRAM.CPP|D:\EDEN STUFF\DROPBOX\UNIVERSITY\GAMES PROGRAMMING\LABS\STREAM 3\SPIKE 12\ZORKISH\ZORKISH\SELECTSTATE.CPP|D:\EDEN STUFF\DROPBOX\UNIVERSITY\GAMES PROGRAMMING\LABS\STREAM 3\SPIKE 12\ZORKISH\ZORKISH\STATEMANAGER.CPP
D:\EDEN STUFF\DROPBOX\UNIVERSITY\GAMES PROGRAMMING\LABS\STREAM 3\SPIKE 12\ZORKISH\ZORKISH\DEBUG\VC140.PDB
D:\EDEN STUFF\DROPBOX\UNIVERSITY\GAMES PROGRAMMING\LABS\STREAM 3\SPIKE 12\ZORKISH\ZORKISH\DEBUG\VC140.IDB
D:\EDEN STUFF\DROPBOX\UNIVERSITY\GAMES PROGRAMMING\LABS\STREAM 3\SPIKE 12\ZORKISH\ZORKISH\DEBUG\ABOUTSTATE.OBJ
D:\EDEN STUFF\DROPBOX\UNIVERSITY\GAMES PROGRAMMING\LABS\STREAM 3\SPIKE 12\ZORKISH\ZORKISH\DEBUG\GAMESTATE.OBJ
D:\EDEN STUFF\DROPBOX\UNIVERSITY\GAMES PROGRAMMING\LABS\STREAM 3\SPIKE 12\ZORKISH\ZORKISH\DEBUG\HALLSTATE.OBJ
D:\EDEN STUFF\DROPBOX\UNIVERSITY\GAMES PROGRAMMING\LABS\STREAM 3\SPIKE 12\ZORKISH\ZORKISH\DEBUG\HELPSTATE.OBJ
D:\EDEN STUFF\DROPBOX\UNIVERSITY\GAMES PROGRAMMING\LABS\STREAM 3\SPIKE 12\ZORKISH\ZORKISH\DEBUG\NEWSCORESTATE.OBJ
D:\EDEN STUFF\DROPBOX\UNIVERSITY\GAMES PROGRAMMING\LABS\STREAM 3\SPIKE 12\ZORKISH\ZORKISH\DEBUG\MENUSTATE.OBJ
D:\EDEN STUFF\DROPBOX\UNIVERSITY\GAMES PROGRAMMING\LABS\STREAM 3\SPIKE 12\ZORKISH\ZORKISH\DEBUG\PROGRAM.OBJ
D:\EDEN STUFF\DROPBOX\UNIVERSITY\GAMES PROGRAMMING\LABS\STREAM 3\SPIKE 12\ZORKISH\ZORKISH\DEBUG\SELECTSTATE.OBJ
D:\EDEN STUFF\DROPBOX\UNIVERSITY\GAMES PROGRAMMING\LABS\STREAM 3\SPIKE 12\ZORKISH\ZORKISH\DEBUG\STATEMANAGER.OBJ
^D:\EDEN STUFF\DROPBOX\UNIVERSITY\GAMES PROGRAMMING\LABS\STREAM 3\SPIKE 12\ZORKISH\ZORKISH\NEWSCORESTATE.CPP
D:\EDEN STUFF\DROPBOX\UNIVERSITY\GAMES PROGRAMMING\LABS\STREAM 3\SPIKE 12\ZORKISH\ZORKISH\DEBUG\VC140.PDB
^D:\EDEN STUFF\DROPBOX\UNIVERSITY\GAMES PROGRAMMING\LABS\STREAM 3\SPIKE 12\ZORKISH\ZORKISH\ABOUTSTATE.CPP|D:\EDEN STUFF\DROPBOX\UNIVERSITY\GAMES PROGRAMMING\LABS\STREAM 3\SPIKE 12\ZORKISH\ZORKISH\HALLSTATE.CPP|D:\EDEN STUFF\DROPBOX\UNIVERSITY\GAMES PROGRAMMING\LABS\STREAM 3\SPIKE 12\ZORKISH\ZORKISH\HELPSTATE.CPP|D:\EDEN STUFF\DROPBOX\UNIVERSITY\GAMES PROGRAMMING\LABS\STREAM 3\SPIKE 12\ZORKISH\ZORKISH\NEWSCORESTATE.CPP
D:\EDEN STUFF\DROPBOX\UNIVERSITY\GAMES PROGRAMMING\LABS\STREAM 3\SPIKE 12\ZORKISH\ZORKISH\DEBUG\VC140.PDB
D:\EDEN STUFF\DROPBOX\UNIVERSITY\GAMES PROGRAMMING\LABS\STREAM 3\SPIKE 12\ZORKISH\ZORKISH\DEBUG\VC140.IDB
D:\EDEN STUFF\DROPBOX\UNIVERSITY\GAMES PROGRAMMING\LABS\STREAM 3\SPIKE 12\ZORKISH\ZORKISH\DEBUG\ABOUTSTATE.OBJ
D:\EDEN STUFF\DROPBOX\UNIVERSITY\GAMES PROGRAMMING\LABS\STREAM 3\SPIKE 12\ZORKISH\ZORKISH\DEBUG\HALLSTATE.OBJ
D:\EDEN STUFF\DROPBOX\UNIVERSITY\GAMES PROGRAMMING\LABS\STREAM 3\SPIKE 12\ZORKISH\ZORKISH\DEBUG\HELPSTATE.OBJ
D:\EDEN STUFF\DROPBOX\UNIVERSITY\GAMES PROGRAMMING\LABS\STREAM 3\SPIKE 12\ZORKISH\ZORKISH\DEBUG\NEWSCORESTATE.OBJ
^D:\EDEN STUFF\DROPBOX\UNIVERSITY\GAMES PROGRAMMING\LABS\STREAM 3\SPIKE 12\ZORKISH\ZORKISH\GAMESTATE.CPP|D:\EDEN STUFF\DROPBOX\UNIVERSITY\GAMES PROGRAMMING\LABS\STREAM 3\SPIKE 12\ZORKISH\ZORKISH\PROGRAM.CPP
D:\EDEN STUFF\DROPBOX\UNIVERSITY\GAMES PROGRAMMING\LABS\STREAM 3\SPIKE 12\ZORKISH\ZORKISH\DEBUG\VC140.PDB
D:\EDEN STUFF\DROPBOX\UNIVERSITY\GAMES PROGRAMMING\LABS\STREAM 3\SPIKE 12\ZORKISH\ZORKISH\DEBUG\VC140.IDB
D:\EDEN STUFF\DROPBOX\UNIVERSITY\GAMES PROGRAMMING\LABS\STREAM 3\SPIKE 12\ZORKISH\ZORKISH\DEBUG\GAMESTATE.OBJ
D:\EDEN STUFF\DROPBOX\UNIVERSITY\GAMES PROGRAMMING\LABS\STREAM 3\SPIKE 12\ZORKISH\ZORKISH\DEBUG\PROGRAM.OBJ
^D:\EDEN STUFF\DROPBOX\UNIVERSITY\GAMES PROGRAMMING\LABS\STREAM 3\SPIKE 12\ZORKISH\ZORKISH\GAMESTATE.CPP|D:\EDEN STUFF\DROPBOX\UNIVERSITY\GAMES PROGRAMMING\LABS\STREAM 3\SPIKE 12\ZORKISH\ZORKISH\NEWSCORESTATE.CPP
D:\EDEN STUFF\DROPBOX\UNIVERSITY\GAMES PROGRAMMING\LABS\STREAM 3\SPIKE 12\ZORKISH\ZORKISH\DEBUG\VC140.PDB
D:\EDEN STUFF\DROPBOX\UNIVERSITY\GAMES PROGRAMMING\LABS\STREAM 3\SPIKE 12\ZORKISH\ZORKISH\DEBUG\VC140.IDB
D:\EDEN STUFF\DROPBOX\UNIVERSITY\GAMES PROGRAMMING\LABS\STREAM 3\SPIKE 12\ZORKISH\ZORKISH\DEBUG\GAMESTATE.OBJ
D:\EDEN STUFF\DROPBOX\UNIVERSITY\GAMES PROGRAMMING\LABS\STREAM 3\SPIKE 12\ZORKISH\ZORKISH\DEBUG\NEWSCORESTATE.OBJ
