^C:\EDEN STUFF\DROPBOX\UNIVERSITY\GAMES PROGRAMMING\LABS\STREAM 3\ZORKISH\ZORKISH\DEBUG\ZORKISH.EXE.INTERMEDIATE.MANIFEST
C:\EDEN STUFF\DROPBOX\UNIVERSITY\GAMES PROGRAMMING\LABS\STREAM 3\ZORKISH\DEBUG\ZORKISH.EXE
^D:\EDEN STUFF\DROPBOX\UNIVERSITY\GAMES PROGRAMMING\LABS\STREAM 3\ZORKISH\ZORKISH\DEBUG\ZORKISH.EXE.INTERMEDIATE.MANIFEST
D:\EDEN STUFF\DROPBOX\UNIVERSITY\GAMES PROGRAMMING\LABS\STREAM 3\ZORKISH\DEBUG\ZORKISH.EXE
