^C:\EDEN STUFF\DROPBOX\UNIVERSITY\GAMES PROGRAMMING\LABS\STREAM 3\ZORKISH\ZORKISH\COMMANDPROCESSING.CPP|C:\EDEN STUFF\DROPBOX\UNIVERSITY\GAMES PROGRAMMING\LABS\STREAM 3\ZORKISH\ZORKISH\MENUS.CPP|C:\EDEN STUFF\DROPBOX\UNIVERSITY\GAMES PROGRAMMING\LABS\STREAM 3\ZORKISH\ZORKISH\PROGRAM.CPP
C:\EDEN STUFF\DROPBOX\UNIVERSITY\GAMES PROGRAMMING\LABS\STREAM 3\ZORKISH\ZORKISH\DEBUG\COMMANDPROCESSING.OBJ
C:\EDEN STUFF\DROPBOX\UNIVERSITY\GAMES PROGRAMMING\LABS\STREAM 3\ZORKISH\ZORKISH\DEBUG\MENUS.OBJ
C:\EDEN STUFF\DROPBOX\UNIVERSITY\GAMES PROGRAMMING\LABS\STREAM 3\ZORKISH\ZORKISH\DEBUG\PROGRAM.OBJ
^C:\EDEN STUFF\DROPBOX\UNIVERSITY\GAMES PROGRAMMING\LABS\STREAM 3\ZORKISH\ZORKISH\COMMANDPROCESSING.CPP
C:\EDEN STUFF\DROPBOX\UNIVERSITY\GAMES PROGRAMMING\LABS\STREAM 3\ZORKISH\ZORKISH\DEBUG\VC100.PDB
^C:\EDEN STUFF\DROPBOX\UNIVERSITY\GAMES PROGRAMMING\LABS\STREAM 3\ZORKISH\ZORKISH\MENUS.CPP
C:\EDEN STUFF\DROPBOX\UNIVERSITY\GAMES PROGRAMMING\LABS\STREAM 3\ZORKISH\ZORKISH\DEBUG\VC100.PDB
C:\EDEN STUFF\DROPBOX\UNIVERSITY\GAMES PROGRAMMING\LABS\STREAM 3\ZORKISH\ZORKISH\DEBUG\MENUS.OBJ
^C:\EDEN STUFF\DROPBOX\UNIVERSITY\GAMES PROGRAMMING\LABS\STREAM 3\ZORKISH\ZORKISH\PROGRAM.CPP
C:\EDEN STUFF\DROPBOX\UNIVERSITY\GAMES PROGRAMMING\LABS\STREAM 3\ZORKISH\ZORKISH\DEBUG\VC100.PDB
^C:\EDEN STUFF\DROPBOX\UNIVERSITY\GAMES PROGRAMMING\LABS\STREAM 3\ZORKISH\ZORKISH\MENUS.CPP|C:\EDEN STUFF\DROPBOX\UNIVERSITY\GAMES PROGRAMMING\LABS\STREAM 3\ZORKISH\ZORKISH\PROGRAM.CPP
C:\EDEN STUFF\DROPBOX\UNIVERSITY\GAMES PROGRAMMING\LABS\STREAM 3\ZORKISH\ZORKISH\DEBUG\MENUS.OBJ
C:\EDEN STUFF\DROPBOX\UNIVERSITY\GAMES PROGRAMMING\LABS\STREAM 3\ZORKISH\ZORKISH\DEBUG\PROGRAM.OBJ
^D:\EDEN STUFF\DROPBOX\UNIVERSITY\GAMES PROGRAMMING\LABS\STREAM 3\ZORKISH\ZORKISH\COMMANDPROCESSING.CPP|D:\EDEN STUFF\DROPBOX\UNIVERSITY\GAMES PROGRAMMING\LABS\STREAM 3\ZORKISH\ZORKISH\MENUS.CPP|D:\EDEN STUFF\DROPBOX\UNIVERSITY\GAMES PROGRAMMING\LABS\STREAM 3\ZORKISH\ZORKISH\PROGRAM.CPP
D:\EDEN STUFF\DROPBOX\UNIVERSITY\GAMES PROGRAMMING\LABS\STREAM 3\ZORKISH\ZORKISH\DEBUG\COMMANDPROCESSING.OBJ
D:\EDEN STUFF\DROPBOX\UNIVERSITY\GAMES PROGRAMMING\LABS\STREAM 3\ZORKISH\ZORKISH\DEBUG\MENUS.OBJ
D:\EDEN STUFF\DROPBOX\UNIVERSITY\GAMES PROGRAMMING\LABS\STREAM 3\ZORKISH\ZORKISH\DEBUG\PROGRAM.OBJ
^D:\EDEN STUFF\DROPBOX\UNIVERSITY\GAMES PROGRAMMING\LABS\STREAM 3\ZORKISH\ZORKISH\COMMANDPROCESSING.CPP
D:\EDEN STUFF\DROPBOX\UNIVERSITY\GAMES PROGRAMMING\LABS\STREAM 3\ZORKISH\ZORKISH\DEBUG\VC100.PDB
^D:\EDEN STUFF\DROPBOX\UNIVERSITY\GAMES PROGRAMMING\LABS\STREAM 3\ZORKISH\ZORKISH\MENUS.CPP
D:\EDEN STUFF\DROPBOX\UNIVERSITY\GAMES PROGRAMMING\LABS\STREAM 3\ZORKISH\ZORKISH\DEBUG\VC100.PDB
D:\EDEN STUFF\DROPBOX\UNIVERSITY\GAMES PROGRAMMING\LABS\STREAM 3\ZORKISH\ZORKISH\DEBUG\MENUS.OBJ
^D:\EDEN STUFF\DROPBOX\UNIVERSITY\GAMES PROGRAMMING\LABS\STREAM 3\ZORKISH\ZORKISH\PROGRAM.CPP
D:\EDEN STUFF\DROPBOX\UNIVERSITY\GAMES PROGRAMMING\LABS\STREAM 3\ZORKISH\ZORKISH\DEBUG\VC100.PDB
D:\EDEN STUFF\DROPBOX\UNIVERSITY\GAMES PROGRAMMING\LABS\STREAM 3\ZORKISH\ZORKISH\DEBUG\PROGRAM.OBJ
^D:\EDEN STUFF\DROPBOX\UNIVERSITY\GAMES PROGRAMMING\LABS\STREAM 3\ZORKISH\ZORKISH\MENUS.CPP|D:\EDEN STUFF\DROPBOX\UNIVERSITY\GAMES PROGRAMMING\LABS\STREAM 3\ZORKISH\ZORKISH\PROGRAM.CPP
D:\EDEN STUFF\DROPBOX\UNIVERSITY\GAMES PROGRAMMING\LABS\STREAM 3\ZORKISH\ZORKISH\DEBUG\MENUS.OBJ
D:\EDEN STUFF\DROPBOX\UNIVERSITY\GAMES PROGRAMMING\LABS\STREAM 3\ZORKISH\ZORKISH\DEBUG\PROGRAM.OBJ
^D:\EDEN STUFF\DROPBOX\UNIVERSITY\GAMES PROGRAMMING\LABS\STREAM 3\ZORKISH\ZORKISH\MENUS.CPP|D:\EDEN STUFF\DROPBOX\UNIVERSITY\GAMES PROGRAMMING\LABS\STREAM 3\ZORKISH\ZORKISH\PROGRAM.CPP|D:\EDEN STUFF\DROPBOX\UNIVERSITY\GAMES PROGRAMMING\LABS\STREAM 3\ZORKISH\ZORKISH\ZORKISH.CPP
D:\EDEN STUFF\DROPBOX\UNIVERSITY\GAMES PROGRAMMING\LABS\STREAM 3\ZORKISH\ZORKISH\DEBUG\MENUS.OBJ
D:\EDEN STUFF\DROPBOX\UNIVERSITY\GAMES PROGRAMMING\LABS\STREAM 3\ZORKISH\ZORKISH\DEBUG\PROGRAM.OBJ
D:\EDEN STUFF\DROPBOX\UNIVERSITY\GAMES PROGRAMMING\LABS\STREAM 3\ZORKISH\ZORKISH\DEBUG\ZORKISH.OBJ
^D:\EDEN STUFF\DROPBOX\UNIVERSITY\GAMES PROGRAMMING\LABS\STREAM 3\ZORKISH\ZORKISH\ZORKISH.CPP
D:\EDEN STUFF\DROPBOX\UNIVERSITY\GAMES PROGRAMMING\LABS\STREAM 3\ZORKISH\ZORKISH\DEBUG\VC100.PDB
D:\EDEN STUFF\DROPBOX\UNIVERSITY\GAMES PROGRAMMING\LABS\STREAM 3\ZORKISH\ZORKISH\DEBUG\ZORKISH.OBJ
^D:\EDEN STUFF\DROPBOX\UNIVERSITY\GAMES PROGRAMMING\LABS\STREAM 3\ZORKISH\ZORKISH\GAME.CPP|D:\EDEN STUFF\DROPBOX\UNIVERSITY\GAMES PROGRAMMING\LABS\STREAM 3\ZORKISH\ZORKISH\MENUS.CPP|D:\EDEN STUFF\DROPBOX\UNIVERSITY\GAMES PROGRAMMING\LABS\STREAM 3\ZORKISH\ZORKISH\PROGRAM.CPP|D:\EDEN STUFF\DROPBOX\UNIVERSITY\GAMES PROGRAMMING\LABS\STREAM 3\ZORKISH\ZORKISH\ZORKISH.CPP
D:\EDEN STUFF\DROPBOX\UNIVERSITY\GAMES PROGRAMMING\LABS\STREAM 3\ZORKISH\ZORKISH\DEBUG\GAME.OBJ
D:\EDEN STUFF\DROPBOX\UNIVERSITY\GAMES PROGRAMMING\LABS\STREAM 3\ZORKISH\ZORKISH\DEBUG\MENUS.OBJ
D:\EDEN STUFF\DROPBOX\UNIVERSITY\GAMES PROGRAMMING\LABS\STREAM 3\ZORKISH\ZORKISH\DEBUG\PROGRAM.OBJ
D:\EDEN STUFF\DROPBOX\UNIVERSITY\GAMES PROGRAMMING\LABS\STREAM 3\ZORKISH\ZORKISH\DEBUG\ZORKISH.OBJ
^D:\EDEN STUFF\DROPBOX\UNIVERSITY\GAMES PROGRAMMING\LABS\STREAM 3\ZORKISH\ZORKISH\GAME.CPP
D:\EDEN STUFF\DROPBOX\UNIVERSITY\GAMES PROGRAMMING\LABS\STREAM 3\ZORKISH\ZORKISH\DEBUG\VC100.PDB
D:\EDEN STUFF\DROPBOX\UNIVERSITY\GAMES PROGRAMMING\LABS\STREAM 3\ZORKISH\ZORKISH\DEBUG\GAME.OBJ
^D:\EDEN STUFF\DROPBOX\UNIVERSITY\GAMES PROGRAMMING\LABS\STREAM 3\ZORKISH\ZORKISH\COMMANDPROCESSING.CPP|D:\EDEN STUFF\DROPBOX\UNIVERSITY\GAMES PROGRAMMING\LABS\STREAM 3\ZORKISH\ZORKISH\GAME.CPP|D:\EDEN STUFF\DROPBOX\UNIVERSITY\GAMES PROGRAMMING\LABS\STREAM 3\ZORKISH\ZORKISH\MENUS.CPP|D:\EDEN STUFF\DROPBOX\UNIVERSITY\GAMES PROGRAMMING\LABS\STREAM 3\ZORKISH\ZORKISH\PROGRAM.CPP|D:\EDEN STUFF\DROPBOX\UNIVERSITY\GAMES PROGRAMMING\LABS\STREAM 3\ZORKISH\ZORKISH\ZORKISH.CPP
D:\EDEN STUFF\DROPBOX\UNIVERSITY\GAMES PROGRAMMING\LABS\STREAM 3\ZORKISH\ZORKISH\DEBUG\COMMANDPROCESSING.OBJ
D:\EDEN STUFF\DROPBOX\UNIVERSITY\GAMES PROGRAMMING\LABS\STREAM 3\ZORKISH\ZORKISH\DEBUG\GAME.OBJ
D:\EDEN STUFF\DROPBOX\UNIVERSITY\GAMES PROGRAMMING\LABS\STREAM 3\ZORKISH\ZORKISH\DEBUG\MENUS.OBJ
D:\EDEN STUFF\DROPBOX\UNIVERSITY\GAMES PROGRAMMING\LABS\STREAM 3\ZORKISH\ZORKISH\DEBUG\ZORKISH.OBJ
^C:\EDEN STUFF\DROPBOX\UNIVERSITY\GAMES PROGRAMMING\LABS\STREAM 3\ZORKISH\ZORKISH\COMMANDPROCESSING.CPP|C:\EDEN STUFF\DROPBOX\UNIVERSITY\GAMES PROGRAMMING\LABS\STREAM 3\ZORKISH\ZORKISH\GAME.CPP|C:\EDEN STUFF\DROPBOX\UNIVERSITY\GAMES PROGRAMMING\LABS\STREAM 3\ZORKISH\ZORKISH\MENUS.CPP|C:\EDEN STUFF\DROPBOX\UNIVERSITY\GAMES PROGRAMMING\LABS\STREAM 3\ZORKISH\ZORKISH\PROGRAM.CPP|C:\EDEN STUFF\DROPBOX\UNIVERSITY\GAMES PROGRAMMING\LABS\STREAM 3\ZORKISH\ZORKISH\ZORKISH.CPP
C:\EDEN STUFF\DROPBOX\UNIVERSITY\GAMES PROGRAMMING\LABS\STREAM 3\ZORKISH\ZORKISH\DEBUG\COMMANDPROCESSING.OBJ
C:\EDEN STUFF\DROPBOX\UNIVERSITY\GAMES PROGRAMMING\LABS\STREAM 3\ZORKISH\ZORKISH\DEBUG\GAME.OBJ
C:\EDEN STUFF\DROPBOX\UNIVERSITY\GAMES PROGRAMMING\LABS\STREAM 3\ZORKISH\ZORKISH\DEBUG\MENUS.OBJ
C:\EDEN STUFF\DROPBOX\UNIVERSITY\GAMES PROGRAMMING\LABS\STREAM 3\ZORKISH\ZORKISH\DEBUG\PROGRAM.OBJ
C:\EDEN STUFF\DROPBOX\UNIVERSITY\GAMES PROGRAMMING\LABS\STREAM 3\ZORKISH\ZORKISH\DEBUG\ZORKISH.OBJ
^C:\EDEN STUFF\DROPBOX\UNIVERSITY\GAMES PROGRAMMING\LABS\STREAM 3\ZORKISH\ZORKISH\GAME.CPP
C:\EDEN STUFF\DROPBOX\UNIVERSITY\GAMES PROGRAMMING\LABS\STREAM 3\ZORKISH\ZORKISH\DEBUG\VC100.PDB
^C:\EDEN STUFF\DROPBOX\UNIVERSITY\GAMES PROGRAMMING\LABS\STREAM 3\ZORKISH\ZORKISH\ZORKISH.CPP
C:\EDEN STUFF\DROPBOX\UNIVERSITY\GAMES PROGRAMMING\LABS\STREAM 3\ZORKISH\ZORKISH\DEBUG\VC100.PDB
^D:\EDEN STUFF\DROPBOX\UNIVERSITY\GAMES PROGRAMMING\LABS\STREAM 3\SPIKE 13\ZORKISH\ZORKISH\COMMANDPROCESSING.CPP|D:\EDEN STUFF\DROPBOX\UNIVERSITY\GAMES PROGRAMMING\LABS\STREAM 3\SPIKE 13\ZORKISH\ZORKISH\GAME.CPP|D:\EDEN STUFF\DROPBOX\UNIVERSITY\GAMES PROGRAMMING\LABS\STREAM 3\SPIKE 13\ZORKISH\ZORKISH\GAMEOBJECT.CPP|D:\EDEN STUFF\DROPBOX\UNIVERSITY\GAMES PROGRAMMING\LABS\STREAM 3\SPIKE 13\ZORKISH\ZORKISH\IDENTIFIABLEOBJECT.CPP|D:\EDEN STUFF\DROPBOX\UNIVERSITY\GAMES PROGRAMMING\LABS\STREAM 3\SPIKE 13\ZORKISH\ZORKISH\MENUS.CPP|D:\EDEN STUFF\DROPBOX\UNIVERSITY\GAMES PROGRAMMING\LABS\STREAM 3\SPIKE 13\ZORKISH\ZORKISH\PROGRAM.CPP|D:\EDEN STUFF\DROPBOX\UNIVERSITY\GAMES PROGRAMMING\LABS\STREAM 3\SPIKE 13\ZORKISH\ZORKISH\ZORKISH.CPP
D:\EDEN STUFF\DROPBOX\UNIVERSITY\GAMES PROGRAMMING\LABS\STREAM 3\SPIKE 13\ZORKISH\ZORKISH\DEBUG\COMMANDPROCESSING.OBJ
D:\EDEN STUFF\DROPBOX\UNIVERSITY\GAMES PROGRAMMING\LABS\STREAM 3\SPIKE 13\ZORKISH\ZORKISH\DEBUG\GAME.OBJ
D:\EDEN STUFF\DROPBOX\UNIVERSITY\GAMES PROGRAMMING\LABS\STREAM 3\SPIKE 13\ZORKISH\ZORKISH\DEBUG\MENUS.OBJ
D:\EDEN STUFF\DROPBOX\UNIVERSITY\GAMES PROGRAMMING\LABS\STREAM 3\SPIKE 13\ZORKISH\ZORKISH\DEBUG\PROGRAM.OBJ
D:\EDEN STUFF\DROPBOX\UNIVERSITY\GAMES PROGRAMMING\LABS\STREAM 3\SPIKE 13\ZORKISH\ZORKISH\DEBUG\ZORKISH.OBJ
^D:\EDEN STUFF\DROPBOX\UNIVERSITY\GAMES PROGRAMMING\LABS\STREAM 3\SPIKE 13\ZORKISH\ZORKISH\COMMANDPROCESSING.CPP
D:\EDEN STUFF\DROPBOX\UNIVERSITY\GAMES PROGRAMMING\LABS\STREAM 3\SPIKE 13\ZORKISH\ZORKISH\DEBUG\VC100.PDB
^D:\EDEN STUFF\DROPBOX\UNIVERSITY\GAMES PROGRAMMING\LABS\STREAM 3\SPIKE 13\ZORKISH\ZORKISH\GAME.CPP
D:\EDEN STUFF\DROPBOX\UNIVERSITY\GAMES PROGRAMMING\LABS\STREAM 3\SPIKE 13\ZORKISH\ZORKISH\DEBUG\VC100.PDB
^D:\EDEN STUFF\DROPBOX\UNIVERSITY\GAMES PROGRAMMING\LABS\STREAM 3\SPIKE 13\ZORKISH\ZORKISH\GAMEOBJECT.CPP
D:\EDEN STUFF\DROPBOX\UNIVERSITY\GAMES PROGRAMMING\LABS\STREAM 3\SPIKE 13\ZORKISH\ZORKISH\DEBUG\VC100.PDB
^D:\EDEN STUFF\DROPBOX\UNIVERSITY\GAMES PROGRAMMING\LABS\STREAM 3\SPIKE 13\ZORKISH\ZORKISH\IDENTIFIABLEOBJECT.CPP
D:\EDEN STUFF\DROPBOX\UNIVERSITY\GAMES PROGRAMMING\LABS\STREAM 3\SPIKE 13\ZORKISH\ZORKISH\DEBUG\VC100.PDB
D:\EDEN STUFF\DROPBOX\UNIVERSITY\GAMES PROGRAMMING\LABS\STREAM 3\SPIKE 13\ZORKISH\ZORKISH\DEBUG\IDENTIFIABLEOBJECT.OBJ
^D:\EDEN STUFF\DROPBOX\UNIVERSITY\GAMES PROGRAMMING\LABS\STREAM 3\SPIKE 13\ZORKISH\ZORKISH\MENUS.CPP
D:\EDEN STUFF\DROPBOX\UNIVERSITY\GAMES PROGRAMMING\LABS\STREAM 3\SPIKE 13\ZORKISH\ZORKISH\DEBUG\VC100.PDB
^D:\EDEN STUFF\DROPBOX\UNIVERSITY\GAMES PROGRAMMING\LABS\STREAM 3\SPIKE 13\ZORKISH\ZORKISH\PROGRAM.CPP
D:\EDEN STUFF\DROPBOX\UNIVERSITY\GAMES PROGRAMMING\LABS\STREAM 3\SPIKE 13\ZORKISH\ZORKISH\DEBUG\VC100.PDB
^D:\EDEN STUFF\DROPBOX\UNIVERSITY\GAMES PROGRAMMING\LABS\STREAM 3\SPIKE 13\ZORKISH\ZORKISH\ZORKISH.CPP
D:\EDEN STUFF\DROPBOX\UNIVERSITY\GAMES PROGRAMMING\LABS\STREAM 3\SPIKE 13\ZORKISH\ZORKISH\DEBUG\VC100.PDB
^D:\EDEN STUFF\DROPBOX\UNIVERSITY\GAMES PROGRAMMING\LABS\STREAM 3\SPIKE 13\ZORKISH\ZORKISH\GAMEOBJECT.CPP|D:\EDEN STUFF\DROPBOX\UNIVERSITY\GAMES PROGRAMMING\LABS\STREAM 3\SPIKE 13\ZORKISH\ZORKISH\IDENTIFIABLEOBJECT.CPP
D:\EDEN STUFF\DROPBOX\UNIVERSITY\GAMES PROGRAMMING\LABS\STREAM 3\SPIKE 13\ZORKISH\ZORKISH\DEBUG\GAMEOBJECT.OBJ
D:\EDEN STUFF\DROPBOX\UNIVERSITY\GAMES PROGRAMMING\LABS\STREAM 3\SPIKE 13\ZORKISH\ZORKISH\DEBUG\IDENTIFIABLEOBJECT.OBJ
^D:\EDEN STUFF\DROPBOX\UNIVERSITY\GAMES PROGRAMMING\LABS\STREAM 3\SPIKE 13\ZORKISH\ZORKISH\INVENTORY.CPP|D:\EDEN STUFF\DROPBOX\UNIVERSITY\GAMES PROGRAMMING\LABS\STREAM 3\SPIKE 13\ZORKISH\ZORKISH\ITEM.CPP
D:\EDEN STUFF\DROPBOX\UNIVERSITY\GAMES PROGRAMMING\LABS\STREAM 3\SPIKE 13\ZORKISH\ZORKISH\DEBUG\ITEM.OBJ
^D:\EDEN STUFF\DROPBOX\UNIVERSITY\GAMES PROGRAMMING\LABS\STREAM 3\SPIKE 13\ZORKISH\ZORKISH\INVENTORY.CPP
D:\EDEN STUFF\DROPBOX\UNIVERSITY\GAMES PROGRAMMING\LABS\STREAM 3\SPIKE 13\ZORKISH\ZORKISH\DEBUG\VC100.PDB
^D:\EDEN STUFF\DROPBOX\UNIVERSITY\GAMES PROGRAMMING\LABS\STREAM 3\SPIKE 13\ZORKISH\ZORKISH\ITEM.CPP
D:\EDEN STUFF\DROPBOX\UNIVERSITY\GAMES PROGRAMMING\LABS\STREAM 3\SPIKE 13\ZORKISH\ZORKISH\DEBUG\VC100.PDB
^D:\EDEN STUFF\DROPBOX\UNIVERSITY\GAMES PROGRAMMING\LABS\STREAM 3\SPIKE 13\ZORKISH\ZORKISH\GAMEOBJECT.CPP|D:\EDEN STUFF\DROPBOX\UNIVERSITY\GAMES PROGRAMMING\LABS\STREAM 3\SPIKE 13\ZORKISH\ZORKISH\INVENTORY.CPP|D:\EDEN STUFF\DROPBOX\UNIVERSITY\GAMES PROGRAMMING\LABS\STREAM 3\SPIKE 13\ZORKISH\ZORKISH\ITEM.CPP
D:\EDEN STUFF\DROPBOX\UNIVERSITY\GAMES PROGRAMMING\LABS\STREAM 3\SPIKE 13\ZORKISH\ZORKISH\DEBUG\GAMEOBJECT.OBJ
D:\EDEN STUFF\DROPBOX\UNIVERSITY\GAMES PROGRAMMING\LABS\STREAM 3\SPIKE 13\ZORKISH\ZORKISH\DEBUG\ITEM.OBJ
^D:\EDEN STUFF\DROPBOX\UNIVERSITY\GAMES PROGRAMMING\LABS\STREAM 3\SPIKE 13\ZORKISH\ZORKISH\CONTAINER.CPP
D:\EDEN STUFF\DROPBOX\UNIVERSITY\GAMES PROGRAMMING\LABS\STREAM 3\SPIKE 13\ZORKISH\ZORKISH\DEBUG\VC100.PDB
^D:\EDEN STUFF\DROPBOX\UNIVERSITY\GAMES PROGRAMMING\LABS\STREAM 3\SPIKE 13\ZORKISH\ZORKISH\CONTAINER.CPP|D:\EDEN STUFF\DROPBOX\UNIVERSITY\GAMES PROGRAMMING\LABS\STREAM 3\SPIKE 13\ZORKISH\ZORKISH\GAMEOBJECT.CPP|D:\EDEN STUFF\DROPBOX\UNIVERSITY\GAMES PROGRAMMING\LABS\STREAM 3\SPIKE 13\ZORKISH\ZORKISH\INVENTORY.CPP
D:\EDEN STUFF\DROPBOX\UNIVERSITY\GAMES PROGRAMMING\LABS\STREAM 3\SPIKE 13\ZORKISH\ZORKISH\DEBUG\GAMEOBJECT.OBJ
^D:\EDEN STUFF\DROPBOX\UNIVERSITY\GAMES PROGRAMMING\LABS\STREAM 3\SPIKE 13\ZORKISH\ZORKISH\CONTAINER.CPP|D:\EDEN STUFF\DROPBOX\UNIVERSITY\GAMES PROGRAMMING\LABS\STREAM 3\SPIKE 13\ZORKISH\ZORKISH\INVENTORY.CPP
D:\EDEN STUFF\DROPBOX\UNIVERSITY\GAMES PROGRAMMING\LABS\STREAM 3\SPIKE 13\ZORKISH\ZORKISH\DEBUG\CONTAINER.OBJ
D:\EDEN STUFF\DROPBOX\UNIVERSITY\GAMES PROGRAMMING\LABS\STREAM 3\SPIKE 13\ZORKISH\ZORKISH\DEBUG\INVENTORY.OBJ
^D:\EDEN STUFF\DROPBOX\UNIVERSITY\GAMES PROGRAMMING\LABS\STREAM 3\SPIKE 13\ZORKISH\ZORKISH\CONTAINER.CPP|D:\EDEN STUFF\DROPBOX\UNIVERSITY\GAMES PROGRAMMING\LABS\STREAM 3\SPIKE 13\ZORKISH\ZORKISH\INVENTORY.CPP|D:\EDEN STUFF\DROPBOX\UNIVERSITY\GAMES PROGRAMMING\LABS\STREAM 3\SPIKE 13\ZORKISH\ZORKISH\LOCATION.CPP
D:\EDEN STUFF\DROPBOX\UNIVERSITY\GAMES PROGRAMMING\LABS\STREAM 3\SPIKE 13\ZORKISH\ZORKISH\DEBUG\INVENTORY.OBJ
D:\EDEN STUFF\DROPBOX\UNIVERSITY\GAMES PROGRAMMING\LABS\STREAM 3\SPIKE 13\ZORKISH\ZORKISH\DEBUG\LOCATION.OBJ
D:\EDEN STUFF\DROPBOX\UNIVERSITY\GAMES PROGRAMMING\LABS\STREAM 3\SPIKE 13\ZORKISH\ZORKISH\DEBUG\CONTAINER.OBJ
^D:\EDEN STUFF\DROPBOX\UNIVERSITY\GAMES PROGRAMMING\LABS\STREAM 3\SPIKE 13\ZORKISH\ZORKISH\LOCATION.CPP
D:\EDEN STUFF\DROPBOX\UNIVERSITY\GAMES PROGRAMMING\LABS\STREAM 3\SPIKE 13\ZORKISH\ZORKISH\DEBUG\VC100.PDB
^D:\EDEN STUFF\DROPBOX\UNIVERSITY\GAMES PROGRAMMING\LABS\STREAM 3\SPIKE 13\ZORKISH\ZORKISH\PLAYER.CPP
D:\EDEN STUFF\DROPBOX\UNIVERSITY\GAMES PROGRAMMING\LABS\STREAM 3\SPIKE 13\ZORKISH\ZORKISH\DEBUG\VC100.PDB
