^D:\EDEN STUFF\DROPBOX\UNIVERSITY\GAMES PROGRAMMING\LABS\STREAM 3\ZORKISH\ZORKISH\DEBUG\COMMANDPROCESSING.OBJ|D:\EDEN STUFF\DROPBOX\UNIVERSITY\GAMES PROGRAMMING\LABS\STREAM 3\ZORKISH\ZORKISH\DEBUG\GAME.OBJ|D:\EDEN STUFF\DROPBOX\UNIVERSITY\GAMES PROGRAMMING\LABS\STREAM 3\ZORKISH\ZORKISH\DEBUG\MENUS.OBJ|D:\EDEN STUFF\DROPBOX\UNIVERSITY\GAMES PROGRAMMING\LABS\STREAM 3\ZORKISH\ZORKISH\DEBUG\PROGRAM.OBJ|D:\EDEN STUFF\DROPBOX\UNIVERSITY\GAMES PROGRAMMING\LABS\STREAM 3\ZORKISH\ZORKISH\DEBUG\ZORKISH.OBJ
/ERRORREPORT:PROMPT /OUT:"D:\Eden Stuff\Dropbox\University\Games Programming\Labs\Stream 3\Zorkish\Debug\Zorkish.exe" /NOLOGO kernel32.lib user32.lib gdi32.lib winspool.lib comdlg32.lib advapi32.lib shell32.lib ole32.lib oleaut32.lib uuid.lib odbc32.lib odbccp32.lib /MANIFEST /ManifestFile:"Debug\Zorkish.exe.intermediate.manifest" /MANIFESTUAC:"level='asInvoker' uiAccess='false'" /DEBUG /PDB:"D:\Eden Stuff\Dropbox\University\Games Programming\Labs\Stream 3\Zorkish\Debug\Zorkish.pdb" /TLBID:1 /DYNAMICBASE /NXCOMPAT /IMPLIB:"D:\Eden Stuff\Dropbox\University\Games Programming\Labs\Stream 3\Zorkish\Debug\Zorkish.lib" /MACHINE:X86 Debug\CommandProcessing.obj
Debug\Game.obj
Debug\Menus.obj
Debug\Program.obj
Debug\Zorkish.obj
^C:\EDEN STUFF\DROPBOX\UNIVERSITY\GAMES PROGRAMMING\LABS\STREAM 3\ZORKISH\ZORKISH\DEBUG\COMMANDPROCESSING.OBJ|C:\EDEN STUFF\DROPBOX\UNIVERSITY\GAMES PROGRAMMING\LABS\STREAM 3\ZORKISH\ZORKISH\DEBUG\GAME.OBJ|C:\EDEN STUFF\DROPBOX\UNIVERSITY\GAMES PROGRAMMING\LABS\STREAM 3\ZORKISH\ZORKISH\DEBUG\MENUS.OBJ|C:\EDEN STUFF\DROPBOX\UNIVERSITY\GAMES PROGRAMMING\LABS\STREAM 3\ZORKISH\ZORKISH\DEBUG\PROGRAM.OBJ|C:\EDEN STUFF\DROPBOX\UNIVERSITY\GAMES PROGRAMMING\LABS\STREAM 3\ZORKISH\ZORKISH\DEBUG\ZORKISH.OBJ
/ERRORREPORT:PROMPT /OUT:"C:\Eden Stuff\Dropbox\University\Games Programming\Labs\Stream 3\Zorkish\Debug\Zorkish.exe" /NOLOGO kernel32.lib user32.lib gdi32.lib winspool.lib comdlg32.lib advapi32.lib shell32.lib ole32.lib oleaut32.lib uuid.lib odbc32.lib odbccp32.lib /MANIFEST /ManifestFile:"Debug\Zorkish.exe.intermediate.manifest" /MANIFESTUAC:"level='asInvoker' uiAccess='false'" /DEBUG /PDB:"C:\Eden Stuff\Dropbox\University\Games Programming\Labs\Stream 3\Zorkish\Debug\Zorkish.pdb" /TLBID:1 /DYNAMICBASE /NXCOMPAT /IMPLIB:"C:\Eden Stuff\Dropbox\University\Games Programming\Labs\Stream 3\Zorkish\Debug\Zorkish.lib" /MACHINE:X86 Debug\CommandProcessing.obj
Debug\Game.obj
Debug\Menus.obj
Debug\Program.obj
Debug\Zorkish.obj
^D:\EDEN STUFF\DROPBOX\UNIVERSITY\GAMES PROGRAMMING\LABS\STREAM 3\SPIKE 13\ZORKISH\ZORKISH\DEBUG\COMMANDPROCESSING.OBJ|D:\EDEN STUFF\DROPBOX\UNIVERSITY\GAMES PROGRAMMING\LABS\STREAM 3\SPIKE 13\ZORKISH\ZORKISH\DEBUG\CONTAINER.OBJ|D:\EDEN STUFF\DROPBOX\UNIVERSITY\GAMES PROGRAMMING\LABS\STREAM 3\SPIKE 13\ZORKISH\ZORKISH\DEBUG\GAME.OBJ|D:\EDEN STUFF\DROPBOX\UNIVERSITY\GAMES PROGRAMMING\LABS\STREAM 3\SPIKE 13\ZORKISH\ZORKISH\DEBUG\GAMEOBJECT.OBJ|D:\EDEN STUFF\DROPBOX\UNIVERSITY\GAMES PROGRAMMING\LABS\STREAM 3\SPIKE 13\ZORKISH\ZORKISH\DEBUG\IDENTIFIABLEOBJECT.OBJ|D:\EDEN STUFF\DROPBOX\UNIVERSITY\GAMES PROGRAMMING\LABS\STREAM 3\SPIKE 13\ZORKISH\ZORKISH\DEBUG\INVENTORY.OBJ|D:\EDEN STUFF\DROPBOX\UNIVERSITY\GAMES PROGRAMMING\LABS\STREAM 3\SPIKE 13\ZORKISH\ZORKISH\DEBUG\LOCATION.OBJ|D:\EDEN STUFF\DROPBOX\UNIVERSITY\GAMES PROGRAMMING\LABS\STREAM 3\SPIKE 13\ZORKISH\ZORKISH\DEBUG\MENUS.OBJ|D:\EDEN STUFF\DROPBOX\UNIVERSITY\GAMES PROGRAMMING\LABS\STREAM 3\SPIKE 13\ZORKISH\ZORKISH\DEBUG\PROGRAM.OBJ|D:\EDEN STUFF\DROPBOX\UNIVERSITY\GAMES PROGRAMMING\LABS\STREAM 3\SPIKE 13\ZORKISH\ZORKISH\DEBUG\ZORKISH.OBJ
/ERRORREPORT:PROMPT /OUT:"D:\Eden Stuff\Dropbox\University\Games Programming\Labs\Stream 3\Spike 13\Zorkish\Debug\Zorkish.exe" /NOLOGO kernel32.lib user32.lib gdi32.lib winspool.lib comdlg32.lib advapi32.lib shell32.lib ole32.lib oleaut32.lib uuid.lib odbc32.lib odbccp32.lib /MANIFEST /ManifestFile:"Debug\Zorkish.exe.intermediate.manifest" /MANIFESTUAC:"level='asInvoker' uiAccess='false'" /DEBUG /PDB:"D:\Eden Stuff\Dropbox\University\Games Programming\Labs\Stream 3\Spike 13\Zorkish\Debug\Zorkish.pdb" /TLBID:1 /DYNAMICBASE /NXCOMPAT /IMPLIB:"D:\Eden Stuff\Dropbox\University\Games Programming\Labs\Stream 3\Spike 13\Zorkish\Debug\Zorkish.lib" /MACHINE:X86 Debug\CommandProcessing.obj
Debug\Container.obj
Debug\Game.obj
Debug\GameObject.obj
Debug\IdentifiableObject.obj
Debug\Inventory.obj
Debug\Location.obj
Debug\Menus.obj
Debug\Program.obj
Debug\Zorkish.obj
