^D:\EDEN STUFF\DROPBOX\UNIVERSITY\GAMES PROGRAMMING\LABS\STREAM 5\SPIKE 19\OPTIMSATION\OPTIMSATION\DEBUG\PROGAM.OBJ
/ERRORREPORT:PROMPT /OUT:"D:\Eden Stuff\Dropbox\University\Games Programming\Labs\Stream 5\Spike 19\Optimsation\Debug\Optimsation.exe" /NOLOGO SDL.lib SDLmain.lib kernel32.lib user32.lib gdi32.lib winspool.lib comdlg32.lib advapi32.lib shell32.lib ole32.lib oleaut32.lib uuid.lib odbc32.lib odbccp32.lib /MANIFEST /ManifestFile:"Debug\Optimsation.exe.intermediate.manifest" /MANIFESTUAC:"level='asInvoker' uiAccess='false'" /DEBUG /PDB:"D:\Eden Stuff\Dropbox\University\Games Programming\Labs\Stream 5\Spike 19\Optimsation\Debug\Optimsation.pdb" /SUBSYSTEM:CONSOLE /TLBID:1 /DYNAMICBASE /NXCOMPAT /IMPLIB:"D:\Eden Stuff\Dropbox\University\Games Programming\Labs\Stream 5\Spike 19\Optimsation\Debug\Optimsation.lib" /MACHINE:X86 Debug\Progam.obj
^D:\EDEN STUFF\DROPBOX\UNIVERSITY\GAMES PROGRAMMING\LABS\STREAM 5\SPIKE 20\OPTIMSATION\OPTIMSATION\DEBUG\PROGAM.OBJ
/ERRORREPORT:PROMPT /OUT:"D:\Eden Stuff\Dropbox\University\Games Programming\Labs\Stream 5\Spike 20\Optimsation\Debug\Optimsation.exe" /NOLOGO SDL.lib SDLmain.lib kernel32.lib user32.lib gdi32.lib winspool.lib comdlg32.lib advapi32.lib shell32.lib ole32.lib oleaut32.lib uuid.lib odbc32.lib odbccp32.lib /MANIFEST /ManifestFile:"Debug\Optimsation.exe.intermediate.manifest" /MANIFESTUAC:"level='asInvoker' uiAccess='false'" /DEBUG /PDB:"D:\Eden Stuff\Dropbox\University\Games Programming\Labs\Stream 5\Spike 20\Optimsation\Debug\Optimsation.pdb" /SUBSYSTEM:CONSOLE /TLBID:1 /DYNAMICBASE /NXCOMPAT /IMPLIB:"D:\Eden Stuff\Dropbox\University\Games Programming\Labs\Stream 5\Spike 20\Optimsation\Debug\Optimsation.lib" /MACHINE:X86 Debug\Progam.obj
