^D:\EDEN STUFF\DROPBOX\UNIVERSITY\GAMES PROGRAMMING\LABS\STREAM 5\SPIKE 19\OPTIMSATION\OPTIMSATION\DEBUG\OPTIMSATION.EXE.INTERMEDIATE.MANIFEST
/nologo /verbose /outputresource:"D:\Eden Stuff\Dropbox\University\Games Programming\Labs\Stream 5\Spike 19\Optimsation\Debug\Optimsation.exe;#1" /manifest Debug\Optimsation.exe.intermediate.manifest
^D:\EDEN STUFF\DROPBOX\UNIVERSITY\GAMES PROGRAMMING\LABS\STREAM 5\SPIKE 20\OPTIMSATION\OPTIMSATION\DEBUG\OPTIMSATION.EXE.INTERMEDIATE.MANIFEST
/nologo /verbose /outputresource:"D:\Eden Stuff\Dropbox\University\Games Programming\Labs\Stream 5\Spike 20\Optimsation\Debug\Optimsation.exe;#1" /manifest Debug\Optimsation.exe.intermediate.manifest
