^D:\EDEN STUFF\DROPBOX\UNIVERSITY\GAMES PROGRAMMING\LABS\STREAM 5\SPIKE 19\OPTIMSATION\OPTIMSATION\PROGAM.CPP
E:\PROGRAM FILES (X86)\MICROSOFT VISUAL STUDIO 10.0\VC\BIN\1033\CLUI.DLL
C:\WINDOWS\GLOBALIZATION\SORTING\SORTDEFAULT.NLS
E:\PROGRAM FILES (X86)\MICROSOFT VISUAL STUDIO 10.0\COMMON7\IDE\MSPDBSRV.EXE
C:\WINDOWS\SYSTEM32\TZRES.DLL
E:\PROGRAM FILES (X86)\MICROSOFT VISUAL STUDIO 10.0\VC\INCLUDE\CTIME
E:\PROGRAM FILES (X86)\MICROSOFT VISUAL STUDIO 10.0\VC\INCLUDE\YVALS.H
E:\PROGRAM FILES (X86)\MICROSOFT VISUAL STUDIO 10.0\VC\INCLUDE\CRTDEFS.H
E:\PROGRAM FILES (X86)\MICROSOFT VISUAL STUDIO 10.0\VC\INCLUDE\SAL.H
E:\PROGRAM FILES (X86)\MICROSOFT VISUAL STUDIO 10.0\VC\INCLUDE\CODEANALYSIS\SOURCEANNOTATIONS.H
E:\PROGRAM FILES (X86)\MICROSOFT VISUAL STUDIO 10.0\VC\INCLUDE\VADEFS.H
E:\PROGRAM FILES (X86)\MICROSOFT VISUAL STUDIO 10.0\VC\INCLUDE\USE_ANSI.H
E:\PROGRAM FILES (X86)\MICROSOFT VISUAL STUDIO 10.0\VC\INCLUDE\TIME.H
E:\PROGRAM FILES (X86)\MICROSOFT VISUAL STUDIO 10.0\VC\INCLUDE\WTIME.INL
E:\PROGRAM FILES (X86)\MICROSOFT VISUAL STUDIO 10.0\VC\INCLUDE\TIME.INL
D:\EDEN STUFF\DROPBOX\UNIVERSITY\GAMES PROGRAMMING\SDL\SDL2-2.0.3\INCLUDE\SDL.H
D:\EDEN STUFF\DROPBOX\UNIVERSITY\GAMES PROGRAMMING\SDL\SDL2-2.0.3\INCLUDE\SDL_MAIN.H
D:\EDEN STUFF\DROPBOX\UNIVERSITY\GAMES PROGRAMMING\SDL\SDL2-2.0.3\INCLUDE\SDL_STDINC.H
D:\EDEN STUFF\DROPBOX\UNIVERSITY\GAMES PROGRAMMING\SDL\SDL2-2.0.3\INCLUDE\SDL_CONFIG.H
D:\EDEN STUFF\DROPBOX\UNIVERSITY\GAMES PROGRAMMING\SDL\SDL2-2.0.3\INCLUDE\SDL_PLATFORM.H
D:\EDEN STUFF\DROPBOX\UNIVERSITY\GAMES PROGRAMMING\SDL\SDL2-2.0.3\INCLUDE\BEGIN_CODE.H
D:\EDEN STUFF\DROPBOX\UNIVERSITY\GAMES PROGRAMMING\SDL\SDL2-2.0.3\INCLUDE\CLOSE_CODE.H
E:\PROGRAM FILES (X86)\MICROSOFT VISUAL STUDIO 10.0\VC\INCLUDE\STDDEF.H
E:\PROGRAM FILES (X86)\MICROSOFT VISUAL STUDIO 10.0\VC\INCLUDE\STDARG.H
D:\EDEN STUFF\DROPBOX\UNIVERSITY\GAMES PROGRAMMING\SDL\SDL2-2.0.3\INCLUDE\SDL_ASSERT.H
D:\EDEN STUFF\DROPBOX\UNIVERSITY\GAMES PROGRAMMING\SDL\SDL2-2.0.3\INCLUDE\SDL_ATOMIC.H
D:\EDEN STUFF\DROPBOX\UNIVERSITY\GAMES PROGRAMMING\SDL\SDL2-2.0.3\INCLUDE\SDL_AUDIO.H
D:\EDEN STUFF\DROPBOX\UNIVERSITY\GAMES PROGRAMMING\SDL\SDL2-2.0.3\INCLUDE\SDL_ERROR.H
D:\EDEN STUFF\DROPBOX\UNIVERSITY\GAMES PROGRAMMING\SDL\SDL2-2.0.3\INCLUDE\SDL_ENDIAN.H
D:\EDEN STUFF\DROPBOX\UNIVERSITY\GAMES PROGRAMMING\SDL\SDL2-2.0.3\INCLUDE\SDL_MUTEX.H
D:\EDEN STUFF\DROPBOX\UNIVERSITY\GAMES PROGRAMMING\SDL\SDL2-2.0.3\INCLUDE\SDL_THREAD.H
E:\PROGRAM FILES (X86)\MICROSOFT VISUAL STUDIO 10.0\VC\INCLUDE\PROCESS.H
D:\EDEN STUFF\DROPBOX\UNIVERSITY\GAMES PROGRAMMING\SDL\SDL2-2.0.3\INCLUDE\SDL_RWOPS.H
D:\EDEN STUFF\DROPBOX\UNIVERSITY\GAMES PROGRAMMING\SDL\SDL2-2.0.3\INCLUDE\SDL_CLIPBOARD.H
D:\EDEN STUFF\DROPBOX\UNIVERSITY\GAMES PROGRAMMING\SDL\SDL2-2.0.3\INCLUDE\SDL_CPUINFO.H
E:\PROGRAM FILES (X86)\MICROSOFT VISUAL STUDIO 10.0\VC\INCLUDE\INTRIN.H
E:\PROGRAM FILES (X86)\MICROSOFT VISUAL STUDIO 10.0\VC\INCLUDE\SETJMP.H
E:\PROGRAM FILES (X86)\MICROSOFT VISUAL STUDIO 10.0\VC\INCLUDE\IMMINTRIN.H
E:\PROGRAM FILES (X86)\MICROSOFT VISUAL STUDIO 10.0\VC\INCLUDE\WMMINTRIN.H
E:\PROGRAM FILES (X86)\MICROSOFT VISUAL STUDIO 10.0\VC\INCLUDE\NMMINTRIN.H
E:\PROGRAM FILES (X86)\MICROSOFT VISUAL STUDIO 10.0\VC\INCLUDE\SMMINTRIN.H
E:\PROGRAM FILES (X86)\MICROSOFT VISUAL STUDIO 10.0\VC\INCLUDE\TMMINTRIN.H
E:\PROGRAM FILES (X86)\MICROSOFT VISUAL STUDIO 10.0\VC\INCLUDE\PMMINTRIN.H
E:\PROGRAM FILES (X86)\MICROSOFT VISUAL STUDIO 10.0\VC\INCLUDE\EMMINTRIN.H
E:\PROGRAM FILES (X86)\MICROSOFT VISUAL STUDIO 10.0\VC\INCLUDE\XMMINTRIN.H
E:\PROGRAM FILES (X86)\MICROSOFT VISUAL STUDIO 10.0\VC\INCLUDE\MMINTRIN.H
E:\PROGRAM FILES (X86)\MICROSOFT VISUAL STUDIO 10.0\VC\INCLUDE\MALLOC.H
E:\PROGRAM FILES (X86)\MICROSOFT VISUAL STUDIO 10.0\VC\INCLUDE\MM3DNOW.H
D:\EDEN STUFF\DROPBOX\UNIVERSITY\GAMES PROGRAMMING\SDL\SDL2-2.0.3\INCLUDE\SDL_EVENTS.H
D:\EDEN STUFF\DROPBOX\UNIVERSITY\GAMES PROGRAMMING\SDL\SDL2-2.0.3\INCLUDE\SDL_VIDEO.H
D:\EDEN STUFF\DROPBOX\UNIVERSITY\GAMES PROGRAMMING\SDL\SDL2-2.0.3\INCLUDE\SDL_PIXELS.H
D:\EDEN STUFF\DROPBOX\UNIVERSITY\GAMES PROGRAMMING\SDL\SDL2-2.0.3\INCLUDE\SDL_RECT.H
D:\EDEN STUFF\DROPBOX\UNIVERSITY\GAMES PROGRAMMING\SDL\SDL2-2.0.3\INCLUDE\SDL_SURFACE.H
D:\EDEN STUFF\DROPBOX\UNIVERSITY\GAMES PROGRAMMING\SDL\SDL2-2.0.3\INCLUDE\SDL_BLENDMODE.H
D:\EDEN STUFF\DROPBOX\UNIVERSITY\GAMES PROGRAMMING\SDL\SDL2-2.0.3\INCLUDE\SDL_KEYBOARD.H
D:\EDEN STUFF\DROPBOX\UNIVERSITY\GAMES PROGRAMMING\SDL\SDL2-2.0.3\INCLUDE\SDL_KEYCODE.H
D:\EDEN STUFF\DROPBOX\UNIVERSITY\GAMES PROGRAMMING\SDL\SDL2-2.0.3\INCLUDE\SDL_SCANCODE.H
D:\EDEN STUFF\DROPBOX\UNIVERSITY\GAMES PROGRAMMING\SDL\SDL2-2.0.3\INCLUDE\SDL_MOUSE.H
D:\EDEN STUFF\DROPBOX\UNIVERSITY\GAMES PROGRAMMING\SDL\SDL2-2.0.3\INCLUDE\SDL_JOYSTICK.H
D:\EDEN STUFF\DROPBOX\UNIVERSITY\GAMES PROGRAMMING\SDL\SDL2-2.0.3\INCLUDE\SDL_GAMECONTROLLER.H
D:\EDEN STUFF\DROPBOX\UNIVERSITY\GAMES PROGRAMMING\SDL\SDL2-2.0.3\INCLUDE\SDL_QUIT.H
D:\EDEN STUFF\DROPBOX\UNIVERSITY\GAMES PROGRAMMING\SDL\SDL2-2.0.3\INCLUDE\SDL_GESTURE.H
D:\EDEN STUFF\DROPBOX\UNIVERSITY\GAMES PROGRAMMING\SDL\SDL2-2.0.3\INCLUDE\SDL_TOUCH.H
D:\EDEN STUFF\DROPBOX\UNIVERSITY\GAMES PROGRAMMING\SDL\SDL2-2.0.3\INCLUDE\SDL_FILESYSTEM.H
D:\EDEN STUFF\DROPBOX\UNIVERSITY\GAMES PROGRAMMING\SDL\SDL2-2.0.3\INCLUDE\SDL_HAPTIC.H
D:\EDEN STUFF\DROPBOX\UNIVERSITY\GAMES PROGRAMMING\SDL\SDL2-2.0.3\INCLUDE\SDL_HINTS.H
D:\EDEN STUFF\DROPBOX\UNIVERSITY\GAMES PROGRAMMING\SDL\SDL2-2.0.3\INCLUDE\SDL_LOADSO.H
D:\EDEN STUFF\DROPBOX\UNIVERSITY\GAMES PROGRAMMING\SDL\SDL2-2.0.3\INCLUDE\SDL_LOG.H
D:\EDEN STUFF\DROPBOX\UNIVERSITY\GAMES PROGRAMMING\SDL\SDL2-2.0.3\INCLUDE\SDL_MESSAGEBOX.H
D:\EDEN STUFF\DROPBOX\UNIVERSITY\GAMES PROGRAMMING\SDL\SDL2-2.0.3\INCLUDE\SDL_POWER.H
D:\EDEN STUFF\DROPBOX\UNIVERSITY\GAMES PROGRAMMING\SDL\SDL2-2.0.3\INCLUDE\SDL_RENDER.H
D:\EDEN STUFF\DROPBOX\UNIVERSITY\GAMES PROGRAMMING\SDL\SDL2-2.0.3\INCLUDE\SDL_SYSTEM.H
D:\EDEN STUFF\DROPBOX\UNIVERSITY\GAMES PROGRAMMING\SDL\SDL2-2.0.3\INCLUDE\SDL_TIMER.H
D:\EDEN STUFF\DROPBOX\UNIVERSITY\GAMES PROGRAMMING\SDL\SDL2-2.0.3\INCLUDE\SDL_VERSION.H
E:\PROGRAM FILES (X86)\MICROSOFT VISUAL STUDIO 10.0\VC\INCLUDE\CSTDLIB
E:\PROGRAM FILES (X86)\MICROSOFT VISUAL STUDIO 10.0\VC\INCLUDE\STDLIB.H
E:\PROGRAM FILES (X86)\MICROSOFT VISUAL STUDIO 10.0\VC\INCLUDE\LIMITS.H
E:\PROGRAM FILES (X86)\MICROSOFT VISUAL STUDIO 10.0\VC\INCLUDE\CSTDIO
E:\PROGRAM FILES (X86)\MICROSOFT VISUAL STUDIO 10.0\VC\INCLUDE\STDIO.H
E:\PROGRAM FILES (X86)\MICROSOFT VISUAL STUDIO 10.0\VC\INCLUDE\SWPRINTF.INL
D:\EDEN STUFF\DROPBOX\UNIVERSITY\GAMES PROGRAMMING\SDL\SDL-1.2.15\INCLUDE\SDL.H
D:\EDEN STUFF\DROPBOX\UNIVERSITY\GAMES PROGRAMMING\SDL\SDL-1.2.15\INCLUDE\SDL_MAIN.H
D:\EDEN STUFF\DROPBOX\UNIVERSITY\GAMES PROGRAMMING\SDL\SDL-1.2.15\INCLUDE\SDL_STDINC.H
D:\EDEN STUFF\DROPBOX\UNIVERSITY\GAMES PROGRAMMING\SDL\SDL-1.2.15\INCLUDE\SDL_CONFIG.H
D:\EDEN STUFF\DROPBOX\UNIVERSITY\GAMES PROGRAMMING\SDL\SDL-1.2.15\INCLUDE\SDL_PLATFORM.H
D:\EDEN STUFF\DROPBOX\UNIVERSITY\GAMES PROGRAMMING\SDL\SDL-1.2.15\INCLUDE\SDL_CONFIG_WIN32.H
E:\PROGRAM FILES (X86)\MICROSOFT VISUAL STUDIO 10.0\VC\INCLUDE\STRING.H
E:\PROGRAM FILES (X86)\MICROSOFT VISUAL STUDIO 10.0\VC\INCLUDE\CTYPE.H
D:\EDEN STUFF\DROPBOX\UNIVERSITY\GAMES PROGRAMMING\SDL\SDL-1.2.15\INCLUDE\BEGIN_CODE.H
D:\EDEN STUFF\DROPBOX\UNIVERSITY\GAMES PROGRAMMING\SDL\SDL-1.2.15\INCLUDE\CLOSE_CODE.H
D:\EDEN STUFF\DROPBOX\UNIVERSITY\GAMES PROGRAMMING\SDL\SDL-1.2.15\INCLUDE\SDL_AUDIO.H
D:\EDEN STUFF\DROPBOX\UNIVERSITY\GAMES PROGRAMMING\SDL\SDL-1.2.15\INCLUDE\SDL_ERROR.H
D:\EDEN STUFF\DROPBOX\UNIVERSITY\GAMES PROGRAMMING\SDL\SDL-1.2.15\INCLUDE\SDL_ENDIAN.H
D:\EDEN STUFF\DROPBOX\UNIVERSITY\GAMES PROGRAMMING\SDL\SDL-1.2.15\INCLUDE\SDL_MUTEX.H
D:\EDEN STUFF\DROPBOX\UNIVERSITY\GAMES PROGRAMMING\SDL\SDL-1.2.15\INCLUDE\SDL_THREAD.H
D:\EDEN STUFF\DROPBOX\UNIVERSITY\GAMES PROGRAMMING\SDL\SDL-1.2.15\INCLUDE\SDL_RWOPS.H
D:\EDEN STUFF\DROPBOX\UNIVERSITY\GAMES PROGRAMMING\SDL\SDL-1.2.15\INCLUDE\SDL_CDROM.H
D:\EDEN STUFF\DROPBOX\UNIVERSITY\GAMES PROGRAMMING\SDL\SDL-1.2.15\INCLUDE\SDL_CPUINFO.H
D:\EDEN STUFF\DROPBOX\UNIVERSITY\GAMES PROGRAMMING\SDL\SDL-1.2.15\INCLUDE\SDL_EVENTS.H
D:\EDEN STUFF\DROPBOX\UNIVERSITY\GAMES PROGRAMMING\SDL\SDL-1.2.15\INCLUDE\SDL_ACTIVE.H
D:\EDEN STUFF\DROPBOX\UNIVERSITY\GAMES PROGRAMMING\SDL\SDL-1.2.15\INCLUDE\SDL_KEYBOARD.H
D:\EDEN STUFF\DROPBOX\UNIVERSITY\GAMES PROGRAMMING\SDL\SDL-1.2.15\INCLUDE\SDL_KEYSYM.H
D:\EDEN STUFF\DROPBOX\UNIVERSITY\GAMES PROGRAMMING\SDL\SDL-1.2.15\INCLUDE\SDL_MOUSE.H
D:\EDEN STUFF\DROPBOX\UNIVERSITY\GAMES PROGRAMMING\SDL\SDL-1.2.15\INCLUDE\SDL_VIDEO.H
D:\EDEN STUFF\DROPBOX\UNIVERSITY\GAMES PROGRAMMING\SDL\SDL-1.2.15\INCLUDE\SDL_JOYSTICK.H
D:\EDEN STUFF\DROPBOX\UNIVERSITY\GAMES PROGRAMMING\SDL\SDL-1.2.15\INCLUDE\SDL_QUIT.H
D:\EDEN STUFF\DROPBOX\UNIVERSITY\GAMES PROGRAMMING\SDL\SDL-1.2.15\INCLUDE\SDL_LOADSO.H
D:\EDEN STUFF\DROPBOX\UNIVERSITY\GAMES PROGRAMMING\SDL\SDL-1.2.15\INCLUDE\SDL_TIMER.H
D:\EDEN STUFF\DROPBOX\UNIVERSITY\GAMES PROGRAMMING\SDL\SDL-1.2.15\INCLUDE\SDL_VERSION.H
