^D:\EDEN STUFF\DROPBOX\UNIVERSITY\GAMES PROGRAMMING\LABS\STREAM 5\SPIKE 19\OPTIMSATION\OPTIMSATION\PROGAM.CPP
D:\EDEN STUFF\DROPBOX\UNIVERSITY\GAMES PROGRAMMING\LABS\STREAM 5\SPIKE 19\OPTIMSATION\OPTIMSATION\DEBUG\VC100.PDB
D:\EDEN STUFF\DROPBOX\UNIVERSITY\GAMES PROGRAMMING\LABS\STREAM 5\SPIKE 19\OPTIMSATION\OPTIMSATION\DEBUG\PROGAM.OBJ
