^D:\EDEN STUFF\DROPBOX\UNIVERSITY\GAMES PROGRAMMING\LABS\STREAM 5\SPIKE 19\OPTIMSATION\OPTIMSATION\DEBUG\PROGAM.OBJ
D:\EDEN STUFF\DROPBOX\UNIVERSITY\GAMES PROGRAMMING\LABS\STREAM 5\SPIKE 19\OPTIMSATION\DEBUG\OPTIMSATION.ILK
D:\EDEN STUFF\DROPBOX\UNIVERSITY\GAMES PROGRAMMING\LABS\STREAM 5\SPIKE 19\OPTIMSATION\DEBUG\OPTIMSATION.EXE
D:\EDEN STUFF\DROPBOX\UNIVERSITY\GAMES PROGRAMMING\LABS\STREAM 5\SPIKE 19\OPTIMSATION\OPTIMSATION\DEBUG\OPTIMSATION.EXE.INTERMEDIATE.MANIFEST
D:\EDEN STUFF\DROPBOX\UNIVERSITY\GAMES PROGRAMMING\LABS\STREAM 5\SPIKE 19\OPTIMSATION\DEBUG\OPTIMSATION.PDB
