^D:\EDEN STUFF\DROPBOX\UNIVERSITY\GAMES PROGRAMMING\LABS\STREAM 3\MESSAGING\MESSAGING\DEBUG\MESSAGE.OBJ|D:\EDEN STUFF\DROPBOX\UNIVERSITY\GAMES PROGRAMMING\LABS\STREAM 3\MESSAGING\MESSAGING\DEBUG\MESSAGING.OBJ|D:\EDEN STUFF\DROPBOX\UNIVERSITY\GAMES PROGRAMMING\LABS\STREAM 3\MESSAGING\MESSAGING\DEBUG\PROGRAM.OBJ|D:\EDEN STUFF\DROPBOX\UNIVERSITY\GAMES PROGRAMMING\LABS\STREAM 3\MESSAGING\MESSAGING\DEBUG\TEST.OBJ
/ERRORREPORT:PROMPT /OUT:"D:\Eden Stuff\Dropbox\University\Games Programming\Labs\Stream 3\Messaging\Debug\Messaging.exe" /NOLOGO kernel32.lib user32.lib gdi32.lib winspool.lib comdlg32.lib advapi32.lib shell32.lib ole32.lib oleaut32.lib uuid.lib odbc32.lib odbccp32.lib /MANIFEST /ManifestFile:"Debug\Messaging.exe.intermediate.manifest" /MANIFESTUAC:"level='asInvoker' uiAccess='false'" /DEBUG /PDB:"D:\Eden Stuff\Dropbox\University\Games Programming\Labs\Stream 3\Messaging\Debug\Messaging.pdb" /TLBID:1 /DYNAMICBASE /NXCOMPAT /IMPLIB:"D:\Eden Stuff\Dropbox\University\Games Programming\Labs\Stream 3\Messaging\Debug\Messaging.lib" /MACHINE:X86 Debug\Message.obj
Debug\Messaging.obj
Debug\Program.obj
Debug\Test.obj
^D:\EDEN STUFF\DROPBOX\UNIVERSITY\GAMES PROGRAMMING\LABS\STREAM 3\SPIKE 10\MESSAGING\MESSAGING\DEBUG\MESSAGE.OBJ|D:\EDEN STUFF\DROPBOX\UNIVERSITY\GAMES PROGRAMMING\LABS\STREAM 3\SPIKE 10\MESSAGING\MESSAGING\DEBUG\MESSAGING.OBJ|D:\EDEN STUFF\DROPBOX\UNIVERSITY\GAMES PROGRAMMING\LABS\STREAM 3\SPIKE 10\MESSAGING\MESSAGING\DEBUG\PROGRAM.OBJ|D:\EDEN STUFF\DROPBOX\UNIVERSITY\GAMES PROGRAMMING\LABS\STREAM 3\SPIKE 10\MESSAGING\MESSAGING\DEBUG\TEST.OBJ
/ERRORREPORT:PROMPT /OUT:"D:\Eden Stuff\Dropbox\University\Games Programming\Labs\Stream 3\Spike 10\Messaging\Debug\Messaging.exe" /NOLOGO kernel32.lib user32.lib gdi32.lib winspool.lib comdlg32.lib advapi32.lib shell32.lib ole32.lib oleaut32.lib uuid.lib odbc32.lib odbccp32.lib /MANIFEST /ManifestFile:"Debug\Messaging.exe.intermediate.manifest" /MANIFESTUAC:"level='asInvoker' uiAccess='false'" /DEBUG /PDB:"D:\Eden Stuff\Dropbox\University\Games Programming\Labs\Stream 3\Spike 10\Messaging\Debug\Messaging.pdb" /TLBID:1 /DYNAMICBASE /NXCOMPAT /IMPLIB:"D:\Eden Stuff\Dropbox\University\Games Programming\Labs\Stream 3\Spike 10\Messaging\Debug\Messaging.lib" /MACHINE:X86 Debug\Message.obj
Debug\Messaging.obj
Debug\Program.obj
Debug\Test.obj
