^D:\EDEN STUFF\DROPBOX\UNIVERSITY\GAMES PROGRAMMING\LABS\STREAM 2\SPIKE 9\SOUNDPLAYER\SOUNDPLAYER\MAIN.CPP
D:\EDEN STUFF\DROPBOX\UNIVERSITY\GAMES PROGRAMMING\LABS\STREAM 2\SPIKE 9\SOUNDPLAYER\SOUNDPLAYER\DEBUG\MAIN.OBJ
D:\EDEN STUFF\DROPBOX\UNIVERSITY\GAMES PROGRAMMING\LABS\STREAM 2\SPIKE 9\SOUNDPLAYER\SOUNDPLAYER\DEBUG\VC100.PDB
^C:\EDEN STUFF\DROPBOX\UNIVERSITY\GAMES PROGRAMMING\LABS\STREAM 2\SPIKE 9\SOUNDPLAYER\SOUNDPLAYER\MAIN.CPP
C:\EDEN STUFF\DROPBOX\UNIVERSITY\GAMES PROGRAMMING\LABS\STREAM 2\SPIKE 9\SOUNDPLAYER\SOUNDPLAYER\DEBUG\MAIN.OBJ
C:\EDEN STUFF\DROPBOX\UNIVERSITY\GAMES PROGRAMMING\LABS\STREAM 2\SPIKE 9\SOUNDPLAYER\SOUNDPLAYER\DEBUG\VC100.PDB
