^D:\EDEN STUFF\DROPBOX\UNIVERSITY\GAMES PROGRAMMING\LABS\STREAM 2\SPIKE 9\SOUNDPLAYER\SOUNDPLAYER\DEBUG\MAIN.OBJ
/ERRORREPORT:PROMPT /OUT:"D:\Eden Stuff\Dropbox\University\Games Programming\Labs\Stream 2\Spike 9\SoundPlayer\Debug\SoundPlayer.exe" /NOLOGO SDL2.lib SDL2main.lib SDL2_image.lib SDL2_mixer.lib kernel32.lib user32.lib gdi32.lib winspool.lib comdlg32.lib advapi32.lib shell32.lib ole32.lib oleaut32.lib uuid.lib odbc32.lib odbccp32.lib /MANIFEST /ManifestFile:"Debug\SoundPlayer.exe.intermediate.manifest" /MANIFESTUAC:"level='asInvoker' uiAccess='false'" /DEBUG /PDB:"D:\Eden Stuff\Dropbox\University\Games Programming\Labs\Stream 2\Spike 9\SoundPlayer\Debug\SoundPlayer.pdb" /SUBSYSTEM:CONSOLE /TLBID:1 /DYNAMICBASE /NXCOMPAT /IMPLIB:"D:\Eden Stuff\Dropbox\University\Games Programming\Labs\Stream 2\Spike 9\SoundPlayer\Debug\SoundPlayer.lib" /MACHINE:X86 Debug\main.obj
^C:\EDEN STUFF\DROPBOX\UNIVERSITY\GAMES PROGRAMMING\LABS\STREAM 2\SPIKE 9\SOUNDPLAYER\SOUNDPLAYER\DEBUG\MAIN.OBJ
/ERRORREPORT:PROMPT /OUT:"C:\Eden Stuff\Dropbox\University\Games Programming\Labs\Stream 2\Spike 9\SoundPlayer\Debug\SoundPlayer.exe" /NOLOGO SDL2.lib SDL2main.lib SDL2_image.lib SDL2_mixer.lib kernel32.lib user32.lib gdi32.lib winspool.lib comdlg32.lib advapi32.lib shell32.lib ole32.lib oleaut32.lib uuid.lib odbc32.lib odbccp32.lib /MANIFEST /ManifestFile:"Debug\SoundPlayer.exe.intermediate.manifest" /MANIFESTUAC:"level='asInvoker' uiAccess='false'" /DEBUG /PDB:"C:\Eden Stuff\Dropbox\University\Games Programming\Labs\Stream 2\Spike 9\SoundPlayer\Debug\SoundPlayer.pdb" /SUBSYSTEM:CONSOLE /TLBID:1 /DYNAMICBASE /NXCOMPAT /IMPLIB:"C:\Eden Stuff\Dropbox\University\Games Programming\Labs\Stream 2\Spike 9\SoundPlayer\Debug\SoundPlayer.lib" /MACHINE:X86 Debug\main.obj
