^D:\EDEN STUFF\DROPBOX\UNIVERSITY\GAMES PROGRAMMING\LABS\STREAM 3\MESSAGING\MESSAGING\DEBUG\MESSAGING.EXE.INTERMEDIATE.MANIFEST
/nologo /verbose /outputresource:"D:\Eden Stuff\Dropbox\University\Games Programming\Labs\Stream 3\Messaging\Debug\Messaging.exe;#1" /manifest Debug\Messaging.exe.intermediate.manifest
^C:\EDEN STUFF\DROPBOX\UNIVERSITY\GAMES PROGRAMMING\LABS\STREAM 3\SPIKE 11\MESSAGING\MESSAGING\DEBUG\MESSAGING.EXE.INTERMEDIATE.MANIFEST
/nologo /verbose /outputresource:"C:\Eden Stuff\Dropbox\University\Games Programming\Labs\Stream 3\Spike 11\Messaging\Debug\Messaging.exe;#1" /manifest Debug\Messaging.exe.intermediate.manifest
