^D:\EDEN STUFF\DROPBOX\UNIVERSITY\GAMES PROGRAMMING\LABS\STREAM 3\SPIKE 13\ZORKISH\ZORKISH\DEBUG\COMMANDPROCESSING.OBJ|D:\EDEN STUFF\DROPBOX\UNIVERSITY\GAMES PROGRAMMING\LABS\STREAM 3\SPIKE 13\ZORKISH\ZORKISH\DEBUG\CONTAINER.OBJ|D:\EDEN STUFF\DROPBOX\UNIVERSITY\GAMES PROGRAMMING\LABS\STREAM 3\SPIKE 13\ZORKISH\ZORKISH\DEBUG\DROPCOMMAND.OBJ|D:\EDEN STUFF\DROPBOX\UNIVERSITY\GAMES PROGRAMMING\LABS\STREAM 3\SPIKE 13\ZORKISH\ZORKISH\DEBUG\GAME.OBJ|D:\EDEN STUFF\DROPBOX\UNIVERSITY\GAMES PROGRAMMING\LABS\STREAM 3\SPIKE 13\ZORKISH\ZORKISH\DEBUG\GAMEOBJECT.OBJ|D:\EDEN STUFF\DROPBOX\UNIVERSITY\GAMES PROGRAMMING\LABS\STREAM 3\SPIKE 13\ZORKISH\ZORKISH\DEBUG\IDENTIFIABLEOBJECT.OBJ|D:\EDEN STUFF\DROPBOX\UNIVERSITY\GAMES PROGRAMMING\LABS\STREAM 3\SPIKE 13\ZORKISH\ZORKISH\DEBUG\INVENTORY.OBJ|D:\EDEN STUFF\DROPBOX\UNIVERSITY\GAMES PROGRAMMING\LABS\STREAM 3\SPIKE 13\ZORKISH\ZORKISH\DEBUG\LOCATION.OBJ|D:\EDEN STUFF\DROPBOX\UNIVERSITY\GAMES PROGRAMMING\LABS\STREAM 3\SPIKE 13\ZORKISH\ZORKISH\DEBUG\LOOKCOMMAND.OBJ|D:\EDEN STUFF\DROPBOX\UNIVERSITY\GAMES PROGRAMMING\LABS\STREAM 3\SPIKE 13\ZORKISH\ZORKISH\DEBUG\MENUS.OBJ|D:\EDEN STUFF\DROPBOX\UNIVERSITY\GAMES PROGRAMMING\LABS\STREAM 3\SPIKE 13\ZORKISH\ZORKISH\DEBUG\MOVECOMMAND.OBJ|D:\EDEN STUFF\DROPBOX\UNIVERSITY\GAMES PROGRAMMING\LABS\STREAM 3\SPIKE 13\ZORKISH\ZORKISH\DEBUG\PLAYER.OBJ|D:\EDEN STUFF\DROPBOX\UNIVERSITY\GAMES PROGRAMMING\LABS\STREAM 3\SPIKE 13\ZORKISH\ZORKISH\DEBUG\PROGRAM.OBJ|D:\EDEN STUFF\DROPBOX\UNIVERSITY\GAMES PROGRAMMING\LABS\STREAM 3\SPIKE 13\ZORKISH\ZORKISH\DEBUG\PUTCOMMAND.OBJ|D:\EDEN STUFF\DROPBOX\UNIVERSITY\GAMES PROGRAMMING\LABS\STREAM 3\SPIKE 13\ZORKISH\ZORKISH\DEBUG\TAKECOMMAND.OBJ|D:\EDEN STUFF\DROPBOX\UNIVERSITY\GAMES PROGRAMMING\LABS\STREAM 3\SPIKE 13\ZORKISH\ZORKISH\DEBUG\WORLD.OBJ|D:\EDEN STUFF\DROPBOX\UNIVERSITY\GAMES PROGRAMMING\LABS\STREAM 3\SPIKE 13\ZORKISH\ZORKISH\DEBUG\ZORKISH.OBJ
C:\WINDOWS\GLOBALIZATION\SORTING\SORTDEFAULT.NLS
C:\PROGRAM FILES (X86)\WINDOWS KITS\8.1\LIB\WINV6.3\UM\X86\KERNEL32.LIB
C:\PROGRAM FILES (X86)\WINDOWS KITS\8.1\LIB\WINV6.3\UM\X86\USER32.LIB
C:\PROGRAM FILES (X86)\WINDOWS KITS\8.1\LIB\WINV6.3\UM\X86\GDI32.LIB
C:\PROGRAM FILES (X86)\WINDOWS KITS\8.1\LIB\WINV6.3\UM\X86\WINSPOOL.LIB
C:\PROGRAM FILES (X86)\WINDOWS KITS\8.1\LIB\WINV6.3\UM\X86\COMDLG32.LIB
C:\PROGRAM FILES (X86)\WINDOWS KITS\8.1\LIB\WINV6.3\UM\X86\ADVAPI32.LIB
C:\PROGRAM FILES (X86)\WINDOWS KITS\8.1\LIB\WINV6.3\UM\X86\SHELL32.LIB
C:\PROGRAM FILES (X86)\WINDOWS KITS\8.1\LIB\WINV6.3\UM\X86\OLE32.LIB
C:\PROGRAM FILES (X86)\WINDOWS KITS\8.1\LIB\WINV6.3\UM\X86\OLEAUT32.LIB
C:\PROGRAM FILES (X86)\WINDOWS KITS\8.1\LIB\WINV6.3\UM\X86\UUID.LIB
C:\PROGRAM FILES (X86)\WINDOWS KITS\8.1\LIB\WINV6.3\UM\X86\ODBC32.LIB
C:\PROGRAM FILES (X86)\WINDOWS KITS\8.1\LIB\WINV6.3\UM\X86\ODBCCP32.LIB
D:\EDEN STUFF\DROPBOX\UNIVERSITY\GAMES PROGRAMMING\LABS\STREAM 3\SPIKE 13\ZORKISH\ZORKISH\DEBUG\COMMANDPROCESSING.OBJ
D:\EDEN STUFF\DROPBOX\UNIVERSITY\GAMES PROGRAMMING\LABS\STREAM 3\SPIKE 13\ZORKISH\ZORKISH\DEBUG\CONTAINER.OBJ
D:\EDEN STUFF\DROPBOX\UNIVERSITY\GAMES PROGRAMMING\LABS\STREAM 3\SPIKE 13\ZORKISH\ZORKISH\DEBUG\DROPCOMMAND.OBJ
D:\EDEN STUFF\DROPBOX\UNIVERSITY\GAMES PROGRAMMING\LABS\STREAM 3\SPIKE 13\ZORKISH\ZORKISH\DEBUG\GAME.OBJ
D:\EDEN STUFF\DROPBOX\UNIVERSITY\GAMES PROGRAMMING\LABS\STREAM 3\SPIKE 13\ZORKISH\ZORKISH\DEBUG\GAMEOBJECT.OBJ
D:\EDEN STUFF\DROPBOX\UNIVERSITY\GAMES PROGRAMMING\LABS\STREAM 3\SPIKE 13\ZORKISH\ZORKISH\DEBUG\IDENTIFIABLEOBJECT.OBJ
D:\EDEN STUFF\DROPBOX\UNIVERSITY\GAMES PROGRAMMING\LABS\STREAM 3\SPIKE 13\ZORKISH\ZORKISH\DEBUG\INVENTORY.OBJ
D:\EDEN STUFF\DROPBOX\UNIVERSITY\GAMES PROGRAMMING\LABS\STREAM 3\SPIKE 13\ZORKISH\ZORKISH\DEBUG\LOCATION.OBJ
D:\EDEN STUFF\DROPBOX\UNIVERSITY\GAMES PROGRAMMING\LABS\STREAM 3\SPIKE 13\ZORKISH\ZORKISH\DEBUG\LOOKCOMMAND.OBJ
D:\EDEN STUFF\DROPBOX\UNIVERSITY\GAMES PROGRAMMING\LABS\STREAM 3\SPIKE 13\ZORKISH\ZORKISH\DEBUG\MENUS.OBJ
D:\EDEN STUFF\DROPBOX\UNIVERSITY\GAMES PROGRAMMING\LABS\STREAM 3\SPIKE 13\ZORKISH\ZORKISH\DEBUG\MOVECOMMAND.OBJ
D:\EDEN STUFF\DROPBOX\UNIVERSITY\GAMES PROGRAMMING\LABS\STREAM 3\SPIKE 13\ZORKISH\ZORKISH\DEBUG\PLAYER.OBJ
D:\EDEN STUFF\DROPBOX\UNIVERSITY\GAMES PROGRAMMING\LABS\STREAM 3\SPIKE 13\ZORKISH\ZORKISH\DEBUG\PROGRAM.OBJ
D:\EDEN STUFF\DROPBOX\UNIVERSITY\GAMES PROGRAMMING\LABS\STREAM 3\SPIKE 13\ZORKISH\ZORKISH\DEBUG\PUTCOMMAND.OBJ
D:\EDEN STUFF\DROPBOX\UNIVERSITY\GAMES PROGRAMMING\LABS\STREAM 3\SPIKE 13\ZORKISH\ZORKISH\DEBUG\TAKECOMMAND.OBJ
D:\EDEN STUFF\DROPBOX\UNIVERSITY\GAMES PROGRAMMING\LABS\STREAM 3\SPIKE 13\ZORKISH\ZORKISH\DEBUG\WORLD.OBJ
D:\EDEN STUFF\DROPBOX\UNIVERSITY\GAMES PROGRAMMING\LABS\STREAM 3\SPIKE 13\ZORKISH\ZORKISH\DEBUG\ZORKISH.OBJ
C:\WINDOWS\SYSTEM32\TZRES.DLL
D:\PROGRAM FILES (X86)\VISUAL STUDIO 14.0\VC\LIB\MSVCPRTD.LIB
D:\PROGRAM FILES (X86)\VISUAL STUDIO 14.0\VC\LIB\MSVCRTD.LIB
D:\PROGRAM FILES (X86)\VISUAL STUDIO 14.0\VC\LIB\OLDNAMES.LIB
D:\PROGRAM FILES (X86)\VISUAL STUDIO 14.0\VC\LIB\VCRUNTIMED.LIB
C:\PROGRAM FILES (X86)\WINDOWS KITS\10\LIB\10.0.10150.0\UCRT\X86\UCRTD.LIB
^D:\EDEN STUFF\DROPBOX\UNIVERSITY\GAMES PROGRAMMING\LABS\STREAM 3\SPIKE 14\ZORKISH\ZORKISH\DEBUG\COMMANDPROCESSING.OBJ|D:\EDEN STUFF\DROPBOX\UNIVERSITY\GAMES PROGRAMMING\LABS\STREAM 3\SPIKE 14\ZORKISH\ZORKISH\DEBUG\COMPONENT.OBJ|D:\EDEN STUFF\DROPBOX\UNIVERSITY\GAMES PROGRAMMING\LABS\STREAM 3\SPIKE 14\ZORKISH\ZORKISH\DEBUG\CONTAINER.OBJ|D:\EDEN STUFF\DROPBOX\UNIVERSITY\GAMES PROGRAMMING\LABS\STREAM 3\SPIKE 14\ZORKISH\ZORKISH\DEBUG\DROPCOMMAND.OBJ|D:\EDEN STUFF\DROPBOX\UNIVERSITY\GAMES PROGRAMMING\LABS\STREAM 3\SPIKE 14\ZORKISH\ZORKISH\DEBUG\GAME.OBJ|D:\EDEN STUFF\DROPBOX\UNIVERSITY\GAMES PROGRAMMING\LABS\STREAM 3\SPIKE 14\ZORKISH\ZORKISH\DEBUG\GAMEOBJECT.OBJ|D:\EDEN STUFF\DROPBOX\UNIVERSITY\GAMES PROGRAMMING\LABS\STREAM 3\SPIKE 14\ZORKISH\ZORKISH\DEBUG\IDENTIFIABLEOBJECT.OBJ|D:\EDEN STUFF\DROPBOX\UNIVERSITY\GAMES PROGRAMMING\LABS\STREAM 3\SPIKE 14\ZORKISH\ZORKISH\DEBUG\INVENTORY.OBJ|D:\EDEN STUFF\DROPBOX\UNIVERSITY\GAMES PROGRAMMING\LABS\STREAM 3\SPIKE 14\ZORKISH\ZORKISH\DEBUG\ITEM.OBJ|D:\EDEN STUFF\DROPBOX\UNIVERSITY\GAMES PROGRAMMING\LABS\STREAM 3\SPIKE 14\ZORKISH\ZORKISH\DEBUG\LOCATION.OBJ|D:\EDEN STUFF\DROPBOX\UNIVERSITY\GAMES PROGRAMMING\LABS\STREAM 3\SPIKE 14\ZORKISH\ZORKISH\DEBUG\LOOKCOMMAND.OBJ|D:\EDEN STUFF\DROPBOX\UNIVERSITY\GAMES PROGRAMMING\LABS\STREAM 3\SPIKE 14\ZORKISH\ZORKISH\DEBUG\MENUS.OBJ|D:\EDEN STUFF\DROPBOX\UNIVERSITY\GAMES PROGRAMMING\LABS\STREAM 3\SPIKE 14\ZORKISH\ZORKISH\DEBUG\MOVECOMMAND.OBJ|D:\EDEN STUFF\DROPBOX\UNIVERSITY\GAMES PROGRAMMING\LABS\STREAM 3\SPIKE 14\ZORKISH\ZORKISH\DEBUG\PLAYER.OBJ|D:\EDEN STUFF\DROPBOX\UNIVERSITY\GAMES PROGRAMMING\LABS\STREAM 3\SPIKE 14\ZORKISH\ZORKISH\DEBUG\PROGRAM.OBJ|D:\EDEN STUFF\DROPBOX\UNIVERSITY\GAMES PROGRAMMING\LABS\STREAM 3\SPIKE 14\ZORKISH\ZORKISH\DEBUG\PUTCOMMAND.OBJ|D:\EDEN STUFF\DROPBOX\UNIVERSITY\GAMES PROGRAMMING\LABS\STREAM 3\SPIKE 14\ZORKISH\ZORKISH\DEBUG\TAKECOMMAND.OBJ|D:\EDEN STUFF\DROPBOX\UNIVERSITY\GAMES PROGRAMMING\LABS\STREAM 3\SPIKE 14\ZORKISH\ZORKISH\DEBUG\WORLD.OBJ|D:\EDEN STUFF\DROPBOX\UNIVERSITY\GAMES PROGRAMMING\LABS\STREAM 3\SPIKE 14\ZORKISH\ZORKISH\DEBUG\ZORKISH.OBJ
C:\WINDOWS\GLOBALIZATION\SORTING\SORTDEFAULT.NLS
C:\PROGRAM FILES (X86)\WINDOWS KITS\8.1\LIB\WINV6.3\UM\X86\KERNEL32.LIB
C:\PROGRAM FILES (X86)\WINDOWS KITS\8.1\LIB\WINV6.3\UM\X86\USER32.LIB
C:\PROGRAM FILES (X86)\WINDOWS KITS\8.1\LIB\WINV6.3\UM\X86\GDI32.LIB
C:\PROGRAM FILES (X86)\WINDOWS KITS\8.1\LIB\WINV6.3\UM\X86\WINSPOOL.LIB
C:\PROGRAM FILES (X86)\WINDOWS KITS\8.1\LIB\WINV6.3\UM\X86\COMDLG32.LIB
C:\PROGRAM FILES (X86)\WINDOWS KITS\8.1\LIB\WINV6.3\UM\X86\ADVAPI32.LIB
C:\PROGRAM FILES (X86)\WINDOWS KITS\8.1\LIB\WINV6.3\UM\X86\SHELL32.LIB
C:\PROGRAM FILES (X86)\WINDOWS KITS\8.1\LIB\WINV6.3\UM\X86\OLE32.LIB
C:\PROGRAM FILES (X86)\WINDOWS KITS\8.1\LIB\WINV6.3\UM\X86\OLEAUT32.LIB
C:\PROGRAM FILES (X86)\WINDOWS KITS\8.1\LIB\WINV6.3\UM\X86\UUID.LIB
C:\PROGRAM FILES (X86)\WINDOWS KITS\8.1\LIB\WINV6.3\UM\X86\ODBC32.LIB
C:\PROGRAM FILES (X86)\WINDOWS KITS\8.1\LIB\WINV6.3\UM\X86\ODBCCP32.LIB
D:\EDEN STUFF\DROPBOX\UNIVERSITY\GAMES PROGRAMMING\LABS\STREAM 3\SPIKE 14\ZORKISH\ZORKISH\DEBUG\COMMANDPROCESSING.OBJ
D:\EDEN STUFF\DROPBOX\UNIVERSITY\GAMES PROGRAMMING\LABS\STREAM 3\SPIKE 14\ZORKISH\ZORKISH\DEBUG\COMPONENT.OBJ
D:\EDEN STUFF\DROPBOX\UNIVERSITY\GAMES PROGRAMMING\LABS\STREAM 3\SPIKE 14\ZORKISH\ZORKISH\DEBUG\CONTAINER.OBJ
D:\EDEN STUFF\DROPBOX\UNIVERSITY\GAMES PROGRAMMING\LABS\STREAM 3\SPIKE 14\ZORKISH\ZORKISH\DEBUG\DROPCOMMAND.OBJ
D:\EDEN STUFF\DROPBOX\UNIVERSITY\GAMES PROGRAMMING\LABS\STREAM 3\SPIKE 14\ZORKISH\ZORKISH\DEBUG\GAME.OBJ
D:\EDEN STUFF\DROPBOX\UNIVERSITY\GAMES PROGRAMMING\LABS\STREAM 3\SPIKE 14\ZORKISH\ZORKISH\DEBUG\GAMEOBJECT.OBJ
D:\EDEN STUFF\DROPBOX\UNIVERSITY\GAMES PROGRAMMING\LABS\STREAM 3\SPIKE 14\ZORKISH\ZORKISH\DEBUG\IDENTIFIABLEOBJECT.OBJ
D:\EDEN STUFF\DROPBOX\UNIVERSITY\GAMES PROGRAMMING\LABS\STREAM 3\SPIKE 14\ZORKISH\ZORKISH\DEBUG\INVENTORY.OBJ
D:\EDEN STUFF\DROPBOX\UNIVERSITY\GAMES PROGRAMMING\LABS\STREAM 3\SPIKE 14\ZORKISH\ZORKISH\DEBUG\ITEM.OBJ
D:\EDEN STUFF\DROPBOX\UNIVERSITY\GAMES PROGRAMMING\LABS\STREAM 3\SPIKE 14\ZORKISH\ZORKISH\DEBUG\LOCATION.OBJ
D:\EDEN STUFF\DROPBOX\UNIVERSITY\GAMES PROGRAMMING\LABS\STREAM 3\SPIKE 14\ZORKISH\ZORKISH\DEBUG\LOOKCOMMAND.OBJ
D:\EDEN STUFF\DROPBOX\UNIVERSITY\GAMES PROGRAMMING\LABS\STREAM 3\SPIKE 14\ZORKISH\ZORKISH\DEBUG\MENUS.OBJ
D:\EDEN STUFF\DROPBOX\UNIVERSITY\GAMES PROGRAMMING\LABS\STREAM 3\SPIKE 14\ZORKISH\ZORKISH\DEBUG\MOVECOMMAND.OBJ
D:\EDEN STUFF\DROPBOX\UNIVERSITY\GAMES PROGRAMMING\LABS\STREAM 3\SPIKE 14\ZORKISH\ZORKISH\DEBUG\PLAYER.OBJ
D:\EDEN STUFF\DROPBOX\UNIVERSITY\GAMES PROGRAMMING\LABS\STREAM 3\SPIKE 14\ZORKISH\ZORKISH\DEBUG\PROGRAM.OBJ
D:\EDEN STUFF\DROPBOX\UNIVERSITY\GAMES PROGRAMMING\LABS\STREAM 3\SPIKE 14\ZORKISH\ZORKISH\DEBUG\PUTCOMMAND.OBJ
D:\EDEN STUFF\DROPBOX\UNIVERSITY\GAMES PROGRAMMING\LABS\STREAM 3\SPIKE 14\ZORKISH\ZORKISH\DEBUG\TAKECOMMAND.OBJ
D:\EDEN STUFF\DROPBOX\UNIVERSITY\GAMES PROGRAMMING\LABS\STREAM 3\SPIKE 14\ZORKISH\ZORKISH\DEBUG\WORLD.OBJ
D:\EDEN STUFF\DROPBOX\UNIVERSITY\GAMES PROGRAMMING\LABS\STREAM 3\SPIKE 14\ZORKISH\ZORKISH\DEBUG\ZORKISH.OBJ
C:\WINDOWS\SYSTEM32\TZRES.DLL
D:\PROGRAM FILES (X86)\VISUAL STUDIO 14.0\VC\LIB\MSVCPRTD.LIB
D:\PROGRAM FILES (X86)\VISUAL STUDIO 14.0\VC\LIB\MSVCRTD.LIB
D:\PROGRAM FILES (X86)\VISUAL STUDIO 14.0\VC\LIB\OLDNAMES.LIB
D:\PROGRAM FILES (X86)\VISUAL STUDIO 14.0\VC\LIB\VCRUNTIMED.LIB
C:\PROGRAM FILES (X86)\WINDOWS KITS\10\LIB\10.0.10150.0\UCRT\X86\UCRTD.LIB
