^D:\EDEN STUFF\DROPBOX\UNIVERSITY\GAMES PROGRAMMING\LABS\STREAM 1\SPIKE 1\GRIDWORLD\GRIDWORLD\DEBUG\IO.OBJ|D:\EDEN STUFF\DROPBOX\UNIVERSITY\GAMES PROGRAMMING\LABS\STREAM 1\SPIKE 1\GRIDWORLD\GRIDWORLD\DEBUG\PROGRAM.OBJ
/ERRORREPORT:PROMPT /OUT:"D:\Eden Stuff\Dropbox\University\Games Programming\Labs\Stream 1\Spike 1\GridWorld\Debug\GridWorld.exe" /NOLOGO kernel32.lib user32.lib gdi32.lib winspool.lib comdlg32.lib advapi32.lib shell32.lib ole32.lib oleaut32.lib uuid.lib odbc32.lib odbccp32.lib /MANIFEST /ManifestFile:"Debug\GridWorld.exe.intermediate.manifest" /MANIFESTUAC:"level='asInvoker' uiAccess='false'" /DEBUG /PDB:"D:\Eden Stuff\Dropbox\University\Games Programming\Labs\Stream 1\Spike 1\GridWorld\Debug\GridWorld.pdb" /TLBID:1 /DYNAMICBASE /NXCOMPAT /IMPLIB:"D:\Eden Stuff\Dropbox\University\Games Programming\Labs\Stream 1\Spike 1\GridWorld\Debug\GridWorld.lib" /MACHINE:X86 Debug\IO.obj
Debug\Program.obj
^C:\EDEN STUFF\DROPBOX\UNIVERSITY\GAMES PROGRAMMING\LABS\STREAM 1\SPIKE 1\GRIDWORLD\GRIDWORLD\DEBUG\IO.OBJ|C:\EDEN STUFF\DROPBOX\UNIVERSITY\GAMES PROGRAMMING\LABS\STREAM 1\SPIKE 1\GRIDWORLD\GRIDWORLD\DEBUG\PROGRAM.OBJ
/ERRORREPORT:PROMPT /OUT:"C:\Eden Stuff\Dropbox\University\Games Programming\Labs\Stream 1\Spike 1\GridWorld\Debug\GridWorld.exe" /NOLOGO kernel32.lib user32.lib gdi32.lib winspool.lib comdlg32.lib advapi32.lib shell32.lib ole32.lib oleaut32.lib uuid.lib odbc32.lib odbccp32.lib /MANIFEST /ManifestFile:"Debug\GridWorld.exe.intermediate.manifest" /MANIFESTUAC:"level='asInvoker' uiAccess='false'" /DEBUG /PDB:"C:\Eden Stuff\Dropbox\University\Games Programming\Labs\Stream 1\Spike 1\GridWorld\Debug\GridWorld.pdb" /TLBID:1 /DYNAMICBASE /NXCOMPAT /IMPLIB:"C:\Eden Stuff\Dropbox\University\Games Programming\Labs\Stream 1\Spike 1\GridWorld\Debug\GridWorld.lib" /MACHINE:X86 Debug\IO.obj
Debug\Program.obj
^D:\EDEN STUFF\DROPBOX\UNIVERSITY\GAMES PROGRAMMING\LABS\STREAM 1\SPIKE 4\GRIDWORLD\GRIDWORLD\DEBUG\IO.OBJ|D:\EDEN STUFF\DROPBOX\UNIVERSITY\GAMES PROGRAMMING\LABS\STREAM 1\SPIKE 4\GRIDWORLD\GRIDWORLD\DEBUG\PROGRAM.OBJ
/ERRORREPORT:PROMPT /OUT:"D:\Eden Stuff\Dropbox\University\Games Programming\Labs\Stream 1\Spike 4\GridWorld\Debug\GridWorld.exe" /NOLOGO kernel32.lib user32.lib gdi32.lib winspool.lib comdlg32.lib advapi32.lib shell32.lib ole32.lib oleaut32.lib uuid.lib odbc32.lib odbccp32.lib /MANIFEST /ManifestFile:"Debug\GridWorld.exe.intermediate.manifest" /MANIFESTUAC:"level='asInvoker' uiAccess='false'" /DEBUG /PDB:"D:\Eden Stuff\Dropbox\University\Games Programming\Labs\Stream 1\Spike 4\GridWorld\Debug\GridWorld.pdb" /TLBID:1 /DYNAMICBASE /NXCOMPAT /IMPLIB:"D:\Eden Stuff\Dropbox\University\Games Programming\Labs\Stream 1\Spike 4\GridWorld\Debug\GridWorld.lib" /MACHINE:X86 Debug\IO.obj
Debug\Program.obj
^C:\EDEN STUFF\DROPBOX\UNIVERSITY\GAMES PROGRAMMING\LABS\STREAM 1\SPIKE 4\GRIDWORLD\GRIDWORLD\DEBUG\IO.OBJ|C:\EDEN STUFF\DROPBOX\UNIVERSITY\GAMES PROGRAMMING\LABS\STREAM 1\SPIKE 4\GRIDWORLD\GRIDWORLD\DEBUG\PROGRAM.OBJ
/ERRORREPORT:PROMPT /OUT:"C:\Eden Stuff\Dropbox\University\Games Programming\Labs\Stream 1\Spike 4\GridWorld\Debug\GridWorld.exe" /NOLOGO kernel32.lib user32.lib gdi32.lib winspool.lib comdlg32.lib advapi32.lib shell32.lib ole32.lib oleaut32.lib uuid.lib odbc32.lib odbccp32.lib /MANIFEST /ManifestFile:"Debug\GridWorld.exe.intermediate.manifest" /MANIFESTUAC:"level='asInvoker' uiAccess='false'" /DEBUG /PDB:"C:\Eden Stuff\Dropbox\University\Games Programming\Labs\Stream 1\Spike 4\GridWorld\Debug\GridWorld.pdb" /TLBID:1 /DYNAMICBASE /NXCOMPAT /IMPLIB:"C:\Eden Stuff\Dropbox\University\Games Programming\Labs\Stream 1\Spike 4\GridWorld\Debug\GridWorld.lib" /MACHINE:X86 Debug\IO.obj
Debug\Program.obj
