^C:\EDEN STUFF\DROPBOX\UNIVERSITY\GAMES PROGRAMMING\LABS\STREAM 1\SPIKE 1\GRIDWORLD\GRIDWORLD\DEBUG\IO.OBJ|C:\EDEN STUFF\DROPBOX\UNIVERSITY\GAMES PROGRAMMING\LABS\STREAM 1\SPIKE 1\GRIDWORLD\GRIDWORLD\DEBUG\PROGRAM.OBJ
C:\EDEN STUFF\DROPBOX\UNIVERSITY\GAMES PROGRAMMING\LABS\STREAM 1\SPIKE 1\GRIDWORLD\DEBUG\GRIDWORLD.ILK
C:\EDEN STUFF\DROPBOX\UNIVERSITY\GAMES PROGRAMMING\LABS\STREAM 1\SPIKE 1\GRIDWORLD\DEBUG\GRIDWORLD.EXE
C:\EDEN STUFF\DROPBOX\UNIVERSITY\GAMES PROGRAMMING\LABS\STREAM 1\SPIKE 1\GRIDWORLD\GRIDWORLD\DEBUG\GRIDWORLD.EXE.INTERMEDIATE.MANIFEST
C:\EDEN STUFF\DROPBOX\UNIVERSITY\GAMES PROGRAMMING\LABS\STREAM 1\SPIKE 1\GRIDWORLD\DEBUG\GRIDWORLD.PDB
^D:\EDEN STUFF\DROPBOX\UNIVERSITY\GAMES PROGRAMMING\LABS\STREAM 1\SPIKE 1\GRIDWORLD\GRIDWORLD\DEBUG\IO.OBJ|D:\EDEN STUFF\DROPBOX\UNIVERSITY\GAMES PROGRAMMING\LABS\STREAM 1\SPIKE 1\GRIDWORLD\GRIDWORLD\DEBUG\PROGRAM.OBJ
D:\EDEN STUFF\DROPBOX\UNIVERSITY\GAMES PROGRAMMING\LABS\STREAM 1\SPIKE 1\GRIDWORLD\DEBUG\GRIDWORLD.ILK
D:\EDEN STUFF\DROPBOX\UNIVERSITY\GAMES PROGRAMMING\LABS\STREAM 1\SPIKE 1\GRIDWORLD\DEBUG\GRIDWORLD.EXE
D:\EDEN STUFF\DROPBOX\UNIVERSITY\GAMES PROGRAMMING\LABS\STREAM 1\SPIKE 1\GRIDWORLD\GRIDWORLD\DEBUG\GRIDWORLD.EXE.INTERMEDIATE.MANIFEST
D:\EDEN STUFF\DROPBOX\UNIVERSITY\GAMES PROGRAMMING\LABS\STREAM 1\SPIKE 1\GRIDWORLD\DEBUG\GRIDWORLD.PDB
^D:\EDEN STUFF\DROPBOX\UNIVERSITY\GAMES PROGRAMMING\LABS\STREAM 1\SPIKE 4\GRIDWORLD\GRIDWORLD\DEBUG\IO.OBJ|D:\EDEN STUFF\DROPBOX\UNIVERSITY\GAMES PROGRAMMING\LABS\STREAM 1\SPIKE 4\GRIDWORLD\GRIDWORLD\DEBUG\PROGRAM.OBJ
D:\EDEN STUFF\DROPBOX\UNIVERSITY\GAMES PROGRAMMING\LABS\STREAM 1\SPIKE 4\GRIDWORLD\DEBUG\GRIDWORLD.ILK
D:\EDEN STUFF\DROPBOX\UNIVERSITY\GAMES PROGRAMMING\LABS\STREAM 1\SPIKE 4\GRIDWORLD\DEBUG\GRIDWORLD.EXE
D:\EDEN STUFF\DROPBOX\UNIVERSITY\GAMES PROGRAMMING\LABS\STREAM 1\SPIKE 4\GRIDWORLD\GRIDWORLD\DEBUG\GRIDWORLD.EXE.INTERMEDIATE.MANIFEST
D:\EDEN STUFF\DROPBOX\UNIVERSITY\GAMES PROGRAMMING\LABS\STREAM 1\SPIKE 4\GRIDWORLD\DEBUG\GRIDWORLD.PDB
^C:\EDEN STUFF\DROPBOX\UNIVERSITY\GAMES PROGRAMMING\LABS\STREAM 1\SPIKE 4\GRIDWORLD\GRIDWORLD\DEBUG\IO.OBJ|C:\EDEN STUFF\DROPBOX\UNIVERSITY\GAMES PROGRAMMING\LABS\STREAM 1\SPIKE 4\GRIDWORLD\GRIDWORLD\DEBUG\PROGRAM.OBJ
C:\EDEN STUFF\DROPBOX\UNIVERSITY\GAMES PROGRAMMING\LABS\STREAM 1\SPIKE 4\GRIDWORLD\DEBUG\GRIDWORLD.ILK
C:\EDEN STUFF\DROPBOX\UNIVERSITY\GAMES PROGRAMMING\LABS\STREAM 1\SPIKE 4\GRIDWORLD\DEBUG\GRIDWORLD.EXE
C:\EDEN STUFF\DROPBOX\UNIVERSITY\GAMES PROGRAMMING\LABS\STREAM 1\SPIKE 4\GRIDWORLD\GRIDWORLD\DEBUG\GRIDWORLD.EXE.INTERMEDIATE.MANIFEST
C:\EDEN STUFF\DROPBOX\UNIVERSITY\GAMES PROGRAMMING\LABS\STREAM 1\SPIKE 4\GRIDWORLD\DEBUG\GRIDWORLD.PDB
