^D:\EDEN STUFF\DROPBOX\UNIVERSITY\GAMES PROGRAMMING\LABS\STREAM 1\SPIKE 3\SPIKE3\SPIKE3\DEBUG\SPIKE3.EXE.EMBED.MANIFEST.RES|D:\EDEN STUFF\DROPBOX\UNIVERSITY\GAMES PROGRAMMING\LABS\STREAM 1\SPIKE 3\SPIKE3\SPIKE3\DEBUG\SPIKE3.OBJ
/ERRORREPORT:PROMPT /OUT:"D:\Eden Stuff\Dropbox\University\Games Programming\Labs\Stream 1\Spike 3\Spike3\Debug\Spike3.exe" /INCREMENTAL /NOLOGO kernel32.lib user32.lib gdi32.lib winspool.lib comdlg32.lib advapi32.lib shell32.lib ole32.lib oleaut32.lib uuid.lib odbc32.lib odbccp32.lib /MANIFEST /ManifestFile:"Debug\Spike3.exe.intermediate.manifest" /MANIFESTUAC:"level='asInvoker' uiAccess='false'" /DEBUG /PDB:"D:\Eden Stuff\Dropbox\University\Games Programming\Labs\Stream 1\Spike 3\Spike3\Debug\Spike3.pdb" /SUBSYSTEM:CONSOLE /TLBID:1 /DYNAMICBASE /NXCOMPAT /IMPLIB:"D:\Eden Stuff\Dropbox\University\Games Programming\Labs\Stream 1\Spike 3\Spike3\Debug\Spike3.lib" /MACHINE:X86 Debug\Spike3.exe.embed.manifest.res
Debug\spike3.obj
^C:\EDEN STUFF\DROPBOX\UNIVERSITY\GAMES PROGRAMMING\LABS\STREAM 1\SPIKE 3\SPIKE3\SPIKE3\DEBUG\SPIKE3.EXE.EMBED.MANIFEST.RES|C:\EDEN STUFF\DROPBOX\UNIVERSITY\GAMES PROGRAMMING\LABS\STREAM 1\SPIKE 3\SPIKE3\SPIKE3\DEBUG\SPIKE3.OBJ
/ERRORREPORT:PROMPT /OUT:"C:\Eden Stuff\Dropbox\University\Games Programming\Labs\Stream 1\Spike 3\Spike3\Debug\Spike3.exe" /INCREMENTAL /NOLOGO kernel32.lib user32.lib gdi32.lib winspool.lib comdlg32.lib advapi32.lib shell32.lib ole32.lib oleaut32.lib uuid.lib odbc32.lib odbccp32.lib /MANIFEST /ManifestFile:"Debug\Spike3.exe.intermediate.manifest" /MANIFESTUAC:"level='asInvoker' uiAccess='false'" /DEBUG /PDB:"C:\Eden Stuff\Dropbox\University\Games Programming\Labs\Stream 1\Spike 3\Spike3\Debug\Spike3.pdb" /SUBSYSTEM:CONSOLE /TLBID:1 /DYNAMICBASE /NXCOMPAT /IMPLIB:"C:\Eden Stuff\Dropbox\University\Games Programming\Labs\Stream 1\Spike 3\Spike3\Debug\Spike3.lib" /MACHINE:X86 Debug\Spike3.exe.embed.manifest.res
Debug\spike3.obj
