^D:\EDEN STUFF\DROPBOX\UNIVERSITY\GAMES PROGRAMMING\LABS\STREAM 1\SPIKE 3\SPIKE3\SPIKE3\DEBUG\SPIKE3.EXE.INTERMEDIATE.MANIFEST
D:\EDEN STUFF\DROPBOX\UNIVERSITY\GAMES PROGRAMMING\LABS\STREAM 1\SPIKE 3\SPIKE3\SPIKE3\DEBUG\SPIKE3.EXE.EMBED.MANIFEST
^C:\EDEN STUFF\DROPBOX\UNIVERSITY\GAMES PROGRAMMING\LABS\STREAM 1\SPIKE 3\SPIKE3\SPIKE3\DEBUG\SPIKE3.EXE.INTERMEDIATE.MANIFEST
C:\EDEN STUFF\DROPBOX\UNIVERSITY\GAMES PROGRAMMING\LABS\STREAM 1\SPIKE 3\SPIKE3\SPIKE3\DEBUG\SPIKE3.EXE.EMBED.MANIFEST
