^D:\EDEN STUFF\DROPBOX\UNIVERSITY\GAMES PROGRAMMING\LABS\STREAM 1\SPIKE 3\SPIKE3\SPIKE3\DEBUG\SPIKE3_MANIFEST.RC
D:\EDEN STUFF\DROPBOX\UNIVERSITY\GAMES PROGRAMMING\LABS\STREAM 1\SPIKE 3\SPIKE3\SPIKE3\DEBUG\SPIKE3.EXE.EMBED.MANIFEST
^C:\EDEN STUFF\DROPBOX\UNIVERSITY\GAMES PROGRAMMING\LABS\STREAM 1\SPIKE 3\SPIKE3\SPIKE3\DEBUG\SPIKE3_MANIFEST.RC
C:\EDEN STUFF\DROPBOX\UNIVERSITY\GAMES PROGRAMMING\LABS\STREAM 1\SPIKE 3\SPIKE3\SPIKE3\DEBUG\SPIKE3.EXE.EMBED.MANIFEST
