^C:\EDEN STUFF\DROPBOX\UNIVERSITY\GAMES PROGRAMMING\LABS\STREAM 2\SPIKE 7\INPUTHANDLING\INPUTHANDLING\MAIN.CPP
C:\EDEN STUFF\DROPBOX\UNIVERSITY\GAMES PROGRAMMING\LABS\STREAM 2\SPIKE 7\INPUTHANDLING\INPUTHANDLING\DEBUG\MAIN.OBJ
C:\EDEN STUFF\DROPBOX\UNIVERSITY\GAMES PROGRAMMING\LABS\STREAM 2\SPIKE 7\INPUTHANDLING\INPUTHANDLING\DEBUG\VC100.PDB
^D:\EDEN STUFF\DROPBOX\UNIVERSITY\GAMES PROGRAMMING\LABS\STREAM 2\SPIKE 7\INPUTHANDLING\INPUTHANDLING\MAIN.CPP
D:\EDEN STUFF\DROPBOX\UNIVERSITY\GAMES PROGRAMMING\LABS\STREAM 2\SPIKE 7\INPUTHANDLING\INPUTHANDLING\DEBUG\MAIN.OBJ
D:\EDEN STUFF\DROPBOX\UNIVERSITY\GAMES PROGRAMMING\LABS\STREAM 2\SPIKE 7\INPUTHANDLING\INPUTHANDLING\DEBUG\VC100.PDB
