^C:\EDEN STUFF\DROPBOX\UNIVERSITY\GAMES PROGRAMMING\LABS\STREAM 3\ZORKISH\ZORKISH\DEBUG\ZORKISH.EXE.INTERMEDIATE.MANIFEST
/nologo /verbose /outputresource:"C:\Eden Stuff\Dropbox\University\Games Programming\Labs\Stream 3\Zorkish\Debug\Zorkish.exe;#1" /manifest Debug\Zorkish.exe.intermediate.manifest
^D:\EDEN STUFF\DROPBOX\UNIVERSITY\GAMES PROGRAMMING\LABS\STREAM 3\ZORKISH\ZORKISH\DEBUG\ZORKISH.EXE.INTERMEDIATE.MANIFEST
/nologo /verbose /outputresource:"D:\Eden Stuff\Dropbox\University\Games Programming\Labs\Stream 3\Zorkish\Debug\Zorkish.exe;#1" /manifest Debug\Zorkish.exe.intermediate.manifest
^D:\EDEN STUFF\DROPBOX\UNIVERSITY\GAMES PROGRAMMING\LABS\STREAM 3\SPIKE 13\ZORKISH\ZORKISH\DEBUG\ZORKISH.EXE.INTERMEDIATE.MANIFEST
/nologo /verbose /outputresource:"D:\Eden Stuff\Dropbox\University\Games Programming\Labs\Stream 3\Spike 13\Zorkish\Debug\Zorkish.exe;#1" /manifest Debug\Zorkish.exe.intermediate.manifest
